11/16/2018
11:30:26 AM

0, CH+=0, CH-=199, Range=+/-10, y=a


Time	v0	y0
0.000000	3.455795	3.455795
0.001000	3.450715	3.450715
0.002000	3.450715	3.450715
0.003000	3.445635	3.445635
0.004000	3.455795	3.455795
0.005000	3.455795	3.455795
0.006000	3.455795	3.455795
0.007000	3.455795	3.455795
0.008000	3.455795	3.455795
0.009000	3.455795	3.455795
0.010000	3.455795	3.455795
0.011000	3.455795	3.455795
0.012000	3.450715	3.450715
0.013000	3.455795	3.455795
0.014000	3.450715	3.450715
0.015000	3.455795	3.455795
0.016000	3.450715	3.450715
0.017000	3.450715	3.450715
0.018000	3.450715	3.450715
0.019000	3.450715	3.450715
0.020000	3.445635	3.445635
0.021000	3.455795	3.455795
0.022000	3.450715	3.450715
0.023000	3.450715	3.450715
0.024000	3.450715	3.450715
0.025000	3.450715	3.450715
0.026000	3.450715	3.450715
0.027000	3.455795	3.455795
0.028000	3.450715	3.450715
0.029000	3.455795	3.455795
0.030000	3.450715	3.450715
0.031000	3.455795	3.455795
0.032000	3.450715	3.450715
0.033000	3.450715	3.450715
0.034000	3.450715	3.450715
0.035000	3.450715	3.450715
0.036000	3.445635	3.445635
0.037000	3.450715	3.450715
0.038000	3.455795	3.455795
0.039000	3.445635	3.445635
0.040000	3.440555	3.440555
0.041000	3.445635	3.445635
0.042000	3.450715	3.450715
0.043000	3.455795	3.455795
0.044000	3.450715	3.450715
0.045000	3.445635	3.445635
0.046000	3.445635	3.445635
0.047000	3.450715	3.450715
0.048000	3.455795	3.455795
0.049000	3.455795	3.455795
0.050000	3.445635	3.445635
0.051000	3.455795	3.455795
0.052000	3.450715	3.450715
0.053000	3.450715	3.450715
0.054000	3.450715	3.450715
0.055000	3.450715	3.450715
0.056000	3.450715	3.450715
0.057000	3.445635	3.445635
0.058000	3.450715	3.450715
0.059000	3.450715	3.450715
0.060000	3.445635	3.445635
0.061000	3.445635	3.445635
0.062000	3.450715	3.450715
0.063000	3.450715	3.450715
0.064000	3.455795	3.455795
0.065000	3.455795	3.455795
0.066000	3.455795	3.455795
0.067000	3.455795	3.455795
0.068000	3.455795	3.455795
0.069000	3.455795	3.455795
0.070000	3.455795	3.455795
0.071000	3.450715	3.450715
0.072000	3.455795	3.455795
0.073000	3.450715	3.450715
0.074000	3.450715	3.450715
0.075000	3.450715	3.450715
0.076000	3.445635	3.445635
0.077000	3.455795	3.455795
0.078000	3.450715	3.450715
0.079000	3.455795	3.455795
0.080000	3.460876	3.460876
0.081000	3.455795	3.455795
0.082000	3.450715	3.450715
0.083000	3.455795	3.455795
0.084000	3.455795	3.455795
0.085000	3.455795	3.455795
0.086000	3.455795	3.455795
0.087000	3.455795	3.455795
0.088000	3.455795	3.455795
0.089000	3.455795	3.455795
0.090000	3.455795	3.455795
0.091000	3.455795	3.455795
0.092000	3.455795	3.455795
0.093000	3.455795	3.455795
0.094000	3.450715	3.450715
0.095000	3.450715	3.450715
0.096000	3.450715	3.450715
0.097000	3.450715	3.450715
0.098000	3.450715	3.450715
0.099000	3.455795	3.455795
0.100000	3.460876	3.460876
0.101000	3.460876	3.460876
0.102000	3.455795	3.455795
0.103000	3.455795	3.455795
0.104000	3.460876	3.460876
0.105000	3.460876	3.460876
0.106000	3.455795	3.455795
0.107000	3.450715	3.450715
0.108000	3.460876	3.460876
0.109000	3.455795	3.455795
0.110000	3.450715	3.450715
0.111000	3.450715	3.450715
0.112000	3.445635	3.445635
0.113000	3.450715	3.450715
0.114000	3.455795	3.455795
0.115000	3.455795	3.455795
0.116000	3.455795	3.455795
0.117000	3.460876	3.460876
0.118000	3.460876	3.460876
0.119000	3.455795	3.455795
0.120000	3.450715	3.450715
0.121000	3.460876	3.460876
0.122000	3.450715	3.450715
0.123000	3.455795	3.455795
0.124000	3.455795	3.455795
0.125000	3.455795	3.455795
0.126000	3.460876	3.460876
0.127000	3.450715	3.450715
0.128000	3.450715	3.450715
0.129000	3.460876	3.460876
0.130000	3.450715	3.450715
0.131000	3.450715	3.450715
0.132000	3.450715	3.450715
0.133000	3.455795	3.455795
0.134000	3.455795	3.455795
0.135000	3.455795	3.455795
0.136000	3.455795	3.455795
0.137000	3.460876	3.460876
0.138000	3.460876	3.460876
0.139000	3.455795	3.455795
0.140000	3.450715	3.450715
0.141000	3.450715	3.450715
0.142000	3.455795	3.455795
0.143000	3.450715	3.450715
0.144000	3.455795	3.455795
0.145000	3.455795	3.455795
0.146000	3.455795	3.455795
0.147000	3.455795	3.455795
0.148000	3.455795	3.455795
0.149000	3.450715	3.450715
0.150000	3.445635	3.445635
0.151000	3.455795	3.455795
0.152000	3.450715	3.450715
0.153000	3.450715	3.450715
0.154000	3.455795	3.455795
0.155000	3.455795	3.455795
0.156000	3.450715	3.450715
0.157000	3.455795	3.455795
0.158000	3.455795	3.455795
0.159000	3.455795	3.455795
0.160000	3.450715	3.450715
0.161000	3.455795	3.455795
0.162000	3.455795	3.455795
0.163000	3.450715	3.450715
0.164000	3.455795	3.455795
0.165000	3.450715	3.450715
0.166000	3.450715	3.450715
0.167000	3.455795	3.455795
0.168000	3.450715	3.450715
0.169000	3.450715	3.450715
0.170000	3.445635	3.445635
0.171000	3.450715	3.450715
0.172000	3.445635	3.445635
0.173000	3.455795	3.455795
0.174000	3.455795	3.455795
0.175000	3.455795	3.455795
0.176000	3.455795	3.455795
0.177000	3.460876	3.460876
0.178000	3.460876	3.460876
0.179000	3.455795	3.455795
0.180000	3.455795	3.455795
0.181000	3.450715	3.450715
0.182000	3.450715	3.450715
0.183000	3.455795	3.455795
0.184000	3.450715	3.450715
0.185000	3.455795	3.455795
0.186000	3.450715	3.450715
0.187000	3.450715	3.450715
0.188000	3.445635	3.445635
0.189000	3.450715	3.450715
0.190000	3.450715	3.450715
0.191000	3.455795	3.455795
0.192000	3.460876	3.460876
0.193000	3.460876	3.460876
0.194000	3.455795	3.455795
0.195000	3.455795	3.455795
0.196000	3.450715	3.450715
0.197000	3.455795	3.455795
0.198000	3.455795	3.455795
0.199000	3.455795	3.455795
0.200000	3.455795	3.455795
0.201000	3.445635	3.445635
0.202000	3.455795	3.455795
0.203000	3.450715	3.450715
0.204000	3.450715	3.450715
0.205000	3.450715	3.450715
0.206000	3.450715	3.450715
0.207000	3.450715	3.450715
0.208000	3.450715	3.450715
0.209000	3.450715	3.450715
0.210000	3.450715	3.450715
0.211000	3.455795	3.455795
0.212000	3.450715	3.450715
0.213000	3.455795	3.455795
0.214000	3.460876	3.460876
0.215000	3.455795	3.455795
0.216000	3.455795	3.455795
0.217000	3.455795	3.455795
0.218000	3.455795	3.455795
0.219000	3.450715	3.450715
0.220000	3.450715	3.450715
0.221000	3.445635	3.445635
0.222000	3.450715	3.450715
0.223000	3.450715	3.450715
0.224000	3.450715	3.450715
0.225000	3.450715	3.450715
0.226000	3.450715	3.450715
0.227000	3.450715	3.450715
0.228000	3.450715	3.450715
0.229000	3.450715	3.450715
0.230000	3.455795	3.455795
0.231000	3.455795	3.455795
0.232000	3.455795	3.455795
0.233000	3.455795	3.455795
0.234000	3.455795	3.455795
0.235000	3.455795	3.455795
0.236000	3.455795	3.455795
0.237000	3.455795	3.455795
0.238000	3.450715	3.450715
0.239000	3.450715	3.450715
0.240000	3.450715	3.450715
0.241000	3.450715	3.450715
0.242000	3.450715	3.450715
0.243000	3.450715	3.450715
0.244000	3.450715	3.450715
0.245000	3.450715	3.450715
0.246000	3.450715	3.450715
0.247000	3.450715	3.450715
0.248000	3.450715	3.450715
0.249000	3.450715	3.450715
0.250000	3.455795	3.455795
0.251000	3.450715	3.450715
0.252000	3.455795	3.455795
0.253000	3.450715	3.450715
0.254000	3.455795	3.455795
0.255000	3.450715	3.450715
0.256000	3.455795	3.455795
0.257000	3.450715	3.450715
0.258000	3.450715	3.450715
0.259000	3.455795	3.455795
0.260000	3.450715	3.450715
0.261000	3.450715	3.450715
0.262000	3.450715	3.450715
0.263000	3.445635	3.445635
0.264000	3.455795	3.455795
0.265000	3.445635	3.445635
0.266000	3.450715	3.450715
0.267000	3.450715	3.450715
0.268000	3.460876	3.460876
0.269000	3.455795	3.455795
0.270000	3.455795	3.455795
0.271000	3.455795	3.455795
0.272000	3.455795	3.455795
0.273000	3.450715	3.450715
0.274000	3.455795	3.455795
0.275000	3.450715	3.450715
0.276000	3.445635	3.445635
0.277000	3.450715	3.450715
0.278000	3.450715	3.450715
0.279000	3.450715	3.450715
0.280000	3.450715	3.450715
0.281000	3.445635	3.445635
0.282000	3.445635	3.445635
0.283000	3.445635	3.445635
0.284000	3.450715	3.450715
0.285000	3.450715	3.450715
0.286000	3.450715	3.450715
0.287000	3.460876	3.460876
0.288000	3.455795	3.455795
0.289000	3.460876	3.460876
0.290000	3.455795	3.455795
0.291000	3.450715	3.450715
0.292000	3.455795	3.455795
0.293000	3.450715	3.450715
0.294000	3.450715	3.450715
0.295000	3.450715	3.450715
0.296000	3.450715	3.450715
0.297000	3.450715	3.450715
0.298000	3.450715	3.450715
0.299000	3.450715	3.450715
0.300000	3.445635	3.445635
0.301000	3.445635	3.445635
0.302000	3.450715	3.450715
0.303000	3.450715	3.450715
0.304000	3.450715	3.450715
0.305000	3.455795	3.455795
0.306000	3.455795	3.455795
0.307000	3.455795	3.455795
0.308000	3.455795	3.455795
0.309000	3.455795	3.455795
0.310000	3.455795	3.455795
0.311000	3.450715	3.450715
0.312000	3.450715	3.450715
0.313000	3.450715	3.450715
0.314000	3.450715	3.450715
0.315000	3.450715	3.450715
0.316000	3.450715	3.450715
0.317000	3.450715	3.450715
0.318000	3.450715	3.450715
0.319000	3.455795	3.455795
0.320000	3.450715	3.450715
0.321000	3.455795	3.455795
0.322000	3.450715	3.450715
0.323000	3.455795	3.455795
0.324000	3.455795	3.455795
0.325000	3.455795	3.455795
0.326000	3.450715	3.450715
0.327000	3.455795	3.455795
0.328000	3.455795	3.455795
0.329000	3.455795	3.455795
0.330000	3.450715	3.450715
0.331000	3.450715	3.450715
0.332000	3.450715	3.450715
0.333000	3.450715	3.450715
0.334000	3.445635	3.445635
0.335000	3.445635	3.445635
0.336000	3.445635	3.445635
0.337000	3.445635	3.445635
0.338000	3.450715	3.450715
0.339000	3.445635	3.445635
0.340000	3.450715	3.450715
0.341000	3.455795	3.455795
0.342000	3.450715	3.450715
0.343000	3.450715	3.450715
0.344000	3.450715	3.450715
0.345000	3.450715	3.450715
0.346000	3.450715	3.450715
0.347000	3.455795	3.455795
0.348000	3.450715	3.450715
0.349000	3.450715	3.450715
0.350000	3.450715	3.450715
0.351000	3.450715	3.450715
0.352000	3.450715	3.450715
0.353000	3.445635	3.445635
0.354000	3.445635	3.445635
0.355000	3.450715	3.450715
0.356000	3.450715	3.450715
0.357000	3.450715	3.450715
0.358000	3.455795	3.455795
0.359000	3.450715	3.450715
0.360000	3.450715	3.450715
0.361000	3.455795	3.455795
0.362000	3.455795	3.455795
0.363000	3.455795	3.455795
0.364000	3.450715	3.450715
0.365000	3.450715	3.450715
0.366000	3.450715	3.450715
0.367000	3.450715	3.450715
0.368000	3.450715	3.450715
0.369000	3.455795	3.455795
0.370000	3.450715	3.450715
0.371000	3.450715	3.450715
0.372000	3.450715	3.450715
0.373000	3.450715	3.450715
0.374000	3.455795	3.455795
0.375000	3.450715	3.450715
0.376000	3.450715	3.450715
0.377000	3.450715	3.450715
0.378000	3.450715	3.450715
0.379000	3.455795	3.455795
0.380000	3.455795	3.455795
0.381000	3.455795	3.455795
0.382000	3.450715	3.450715
0.383000	3.455795	3.455795
0.384000	3.450715	3.450715
0.385000	3.455795	3.455795
0.386000	3.455795	3.455795
0.387000	3.450715	3.450715
0.388000	3.450715	3.450715
0.389000	3.455795	3.455795
0.390000	3.450715	3.450715
0.391000	3.450715	3.450715
0.392000	3.450715	3.450715
0.393000	3.450715	3.450715
0.394000	3.450715	3.450715
0.395000	3.450715	3.450715
0.396000	3.450715	3.450715
0.397000	3.450715	3.450715
0.398000	3.455795	3.455795
0.399000	3.450715	3.450715
0.400000	3.450715	3.450715
0.401000	3.455795	3.455795
0.402000	3.450715	3.450715
0.403000	3.450715	3.450715
0.404000	3.450715	3.450715
0.405000	3.450715	3.450715
0.406000	3.450715	3.450715
0.407000	3.450715	3.450715
0.408000	3.450715	3.450715
0.409000	3.450715	3.450715
0.410000	3.450715	3.450715
0.411000	3.450715	3.450715
0.412000	3.445635	3.445635
0.413000	3.445635	3.445635
0.414000	3.450715	3.450715
0.415000	3.445635	3.445635
0.416000	3.450715	3.450715
0.417000	3.450715	3.450715
0.418000	3.450715	3.450715
0.419000	3.450715	3.450715
0.420000	3.455795	3.455795
0.421000	3.450715	3.450715
0.422000	3.450715	3.450715
0.423000	3.450715	3.450715
0.424000	3.450715	3.450715
0.425000	3.450715	3.450715
0.426000	3.445635	3.445635
0.427000	3.445635	3.445635
0.428000	3.450715	3.450715
0.429000	3.445635	3.445635
0.430000	3.445635	3.445635
0.431000	3.445635	3.445635
0.432000	3.450715	3.450715
0.433000	3.450715	3.450715
0.434000	3.450715	3.450715
0.435000	3.450715	3.450715
0.436000	3.450715	3.450715
0.437000	3.450715	3.450715
0.438000	3.450715	3.450715
0.439000	3.445635	3.445635
0.440000	3.450715	3.450715
0.441000	3.450715	3.450715
0.442000	3.450715	3.450715
0.443000	3.450715	3.450715
0.444000	3.450715	3.450715
0.445000	3.450715	3.450715
0.446000	3.450715	3.450715
0.447000	3.445635	3.445635
0.448000	3.450715	3.450715
0.449000	3.445635	3.445635
0.450000	3.445635	3.445635
0.451000	3.445635	3.445635
0.452000	3.450715	3.450715
0.453000	3.450715	3.450715
0.454000	3.445635	3.445635
0.455000	3.450715	3.450715
0.456000	3.450715	3.450715
0.457000	3.455795	3.455795
0.458000	3.450715	3.450715
0.459000	3.450715	3.450715
0.460000	3.450715	3.450715
0.461000	3.450715	3.450715
0.462000	3.445635	3.445635
0.463000	3.450715	3.450715
0.464000	3.445635	3.445635
0.465000	3.445635	3.445635
0.466000	3.445635	3.445635
0.467000	3.445635	3.445635
0.468000	3.450715	3.450715
0.469000	3.450715	3.450715
0.470000	3.445635	3.445635
0.471000	3.450715	3.450715
0.472000	3.445635	3.445635
0.473000	3.450715	3.450715
0.474000	3.450715	3.450715
0.475000	3.455795	3.455795
0.476000	3.450715	3.450715
0.477000	3.450715	3.450715
0.478000	3.450715	3.450715
0.479000	3.445635	3.445635
0.480000	3.445635	3.445635
0.481000	3.450715	3.450715
0.482000	3.450715	3.450715
0.483000	3.450715	3.450715
0.484000	3.450715	3.450715
0.485000	3.445635	3.445635
0.486000	3.445635	3.445635
0.487000	3.450715	3.450715
0.488000	3.450715	3.450715
0.489000	3.455795	3.455795
0.490000	3.455795	3.455795
0.491000	3.455795	3.455795
0.492000	3.455795	3.455795
0.493000	3.455795	3.455795
0.494000	3.450715	3.450715
0.495000	3.455795	3.455795
0.496000	3.455795	3.455795
0.497000	3.450715	3.450715
0.498000	3.450715	3.450715
0.499000	3.455795	3.455795
0.500000	3.450715	3.450715
0.501000	3.450715	3.450715
0.502000	3.450715	3.450715
0.503000	3.445635	3.445635
0.504000	3.450715	3.450715
0.505000	3.450715	3.450715
0.506000	3.450715	3.450715
0.507000	3.450715	3.450715
0.508000	3.450715	3.450715
0.509000	3.450715	3.450715
0.510000	3.450715	3.450715
0.511000	3.450715	3.450715
0.512000	3.455795	3.455795
0.513000	3.460876	3.460876
0.514000	3.455795	3.455795
0.515000	3.450715	3.450715
0.516000	3.450715	3.450715
0.517000	3.450715	3.450715
0.518000	3.455795	3.455795
0.519000	3.450715	3.450715
0.520000	3.450715	3.450715
0.521000	3.450715	3.450715
0.522000	3.445635	3.445635
0.523000	3.450715	3.450715
0.524000	3.450715	3.450715
0.525000	3.455795	3.455795
0.526000	3.450715	3.450715
0.527000	3.455795	3.455795
0.528000	3.450715	3.450715
0.529000	3.455795	3.455795
0.530000	3.455795	3.455795
0.531000	3.450715	3.450715
0.532000	3.450715	3.450715
0.533000	3.450715	3.450715
0.534000	3.450715	3.450715
0.535000	3.450715	3.450715
0.536000	3.450715	3.450715
0.537000	3.450715	3.450715
0.538000	3.450715	3.450715
0.539000	3.450715	3.450715
0.540000	3.445635	3.445635
0.541000	3.450715	3.450715
0.542000	3.445635	3.445635
0.543000	3.450715	3.450715
0.544000	3.450715	3.450715
0.545000	3.450715	3.450715
0.546000	3.455795	3.455795
0.547000	3.455795	3.455795
0.548000	3.455795	3.455795
0.549000	3.455795	3.455795
0.550000	3.455795	3.455795
0.551000	3.455795	3.455795
0.552000	3.450715	3.450715
0.553000	3.455795	3.455795
0.554000	3.445635	3.445635
0.555000	3.455795	3.455795
0.556000	3.455795	3.455795
0.557000	3.450715	3.450715
0.558000	3.445635	3.445635
0.559000	3.450715	3.450715
0.560000	3.445635	3.445635
0.561000	3.450715	3.450715
0.562000	3.450715	3.450715
0.563000	3.450715	3.450715
0.564000	3.455795	3.455795
0.565000	3.455795	3.455795
0.566000	3.455795	3.455795
0.567000	3.450715	3.450715
0.568000	3.450715	3.450715
0.569000	3.450715	3.450715
0.570000	3.455795	3.455795
0.571000	3.450715	3.450715
0.572000	3.455795	3.455795
0.573000	3.450715	3.450715
0.574000	3.445635	3.445635
0.575000	3.455795	3.455795
0.576000	3.450715	3.450715
0.577000	3.450715	3.450715
0.578000	3.455795	3.455795
0.579000	3.450715	3.450715
0.580000	3.450715	3.450715
0.581000	3.450715	3.450715
0.582000	3.455795	3.455795
0.583000	3.450715	3.450715
0.584000	3.455795	3.455795
0.585000	3.455795	3.455795
0.586000	3.450715	3.450715
0.587000	3.455795	3.455795
0.588000	3.450715	3.450715
0.589000	3.450715	3.450715
0.590000	3.450715	3.450715
0.591000	3.450715	3.450715
0.592000	3.455795	3.455795
0.593000	3.450715	3.450715
0.594000	3.450715	3.450715
0.595000	3.450715	3.450715
0.596000	3.445635	3.445635
0.597000	3.450715	3.450715
0.598000	3.450715	3.450715
0.599000	3.450715	3.450715
0.600000	3.455795	3.455795
0.601000	3.455795	3.455795
0.602000	3.450715	3.450715
0.603000	3.450715	3.450715
0.604000	3.455795	3.455795
0.605000	3.455795	3.455795
0.606000	3.450715	3.450715
0.607000	3.450715	3.450715
0.608000	3.450715	3.450715
0.609000	3.455795	3.455795
0.610000	3.450715	3.450715
0.611000	3.455795	3.455795
0.612000	3.445635	3.445635
0.613000	3.445635	3.445635
0.614000	3.450715	3.450715
0.615000	3.445635	3.445635
0.616000	3.445635	3.445635
0.617000	3.450715	3.450715
0.618000	3.450715	3.450715
0.619000	3.450715	3.450715
0.620000	3.450715	3.450715
0.621000	3.450715	3.450715
0.622000	3.455795	3.455795
0.623000	3.455795	3.455795
0.624000	3.450715	3.450715
0.625000	3.450715	3.450715
0.626000	3.450715	3.450715
0.627000	3.450715	3.450715
0.628000	3.450715	3.450715
0.629000	3.450715	3.450715
0.630000	3.450715	3.450715
0.631000	3.445635	3.445635
0.632000	3.450715	3.450715
0.633000	3.445635	3.445635
0.634000	3.450715	3.450715
0.635000	3.445635	3.445635
0.636000	3.445635	3.445635
0.637000	3.455795	3.455795
0.638000	3.450715	3.450715
0.639000	3.455795	3.455795
0.640000	3.455795	3.455795
0.641000	3.455795	3.455795
0.642000	3.450715	3.450715
0.643000	3.450715	3.450715
0.644000	3.450715	3.450715
0.645000	3.445635	3.445635
0.646000	3.450715	3.450715
0.647000	3.445635	3.445635
0.648000	3.445635	3.445635
0.649000	3.445635	3.445635
0.650000	3.440555	3.440555
0.651000	3.445635	3.445635
0.652000	3.445635	3.445635
0.653000	3.445635	3.445635
0.654000	3.450715	3.450715
0.655000	3.450715	3.450715
0.656000	3.450715	3.450715
0.657000	3.455795	3.455795
0.658000	3.450715	3.450715
0.659000	3.445635	3.445635
0.660000	3.450715	3.450715
0.661000	3.450715	3.450715
0.662000	3.450715	3.450715
0.663000	3.450715	3.450715
0.664000	3.445635	3.445635
0.665000	3.445635	3.445635
0.666000	3.450715	3.450715
0.667000	3.450715	3.450715
0.668000	3.445635	3.445635
0.669000	3.445635	3.445635
0.670000	3.450715	3.450715
0.671000	3.445635	3.445635
0.672000	3.445635	3.445635
0.673000	3.445635	3.445635
0.674000	3.450715	3.450715
0.675000	3.455795	3.455795
0.676000	3.450715	3.450715
0.677000	3.450715	3.450715
0.678000	3.450715	3.450715
0.679000	3.450715	3.450715
0.680000	3.450715	3.450715
0.681000	3.450715	3.450715
0.682000	3.450715	3.450715
0.683000	3.445635	3.445635
0.684000	3.450715	3.450715
0.685000	3.445635	3.445635
0.686000	3.450715	3.450715
0.687000	3.445635	3.445635
0.688000	3.450715	3.450715
0.689000	3.450715	3.450715
0.690000	3.450715	3.450715
0.691000	3.450715	3.450715
0.692000	3.455795	3.455795
0.693000	3.450715	3.450715
0.694000	3.450715	3.450715
0.695000	3.455795	3.455795
0.696000	3.455795	3.455795
0.697000	3.450715	3.450715
0.698000	3.450715	3.450715
0.699000	3.445635	3.445635
0.700000	3.450715	3.450715
0.701000	3.450715	3.450715
0.702000	3.450715	3.450715
0.703000	3.450715	3.450715
0.704000	3.445635	3.445635
0.705000	3.450715	3.450715
0.706000	3.450715	3.450715
0.707000	3.450715	3.450715
0.708000	3.450715	3.450715
0.709000	3.450715	3.450715
0.710000	3.450715	3.450715
0.711000	3.450715	3.450715
0.712000	3.445635	3.445635
0.713000	3.450715	3.450715
0.714000	3.455795	3.455795
0.715000	3.450715	3.450715
0.716000	3.455795	3.455795
0.717000	3.455795	3.455795
0.718000	3.450715	3.450715
0.719000	3.450715	3.450715
0.720000	3.450715	3.450715
0.721000	3.450715	3.450715
0.722000	3.445635	3.445635
0.723000	3.450715	3.450715
0.724000	3.450715	3.450715
0.725000	3.450715	3.450715
0.726000	3.450715	3.450715
0.727000	3.450715	3.450715
0.728000	3.450715	3.450715
0.729000	3.450715	3.450715
0.730000	3.450715	3.450715
0.731000	3.450715	3.450715
0.732000	3.455795	3.455795
0.733000	3.455795	3.455795
0.734000	3.455795	3.455795
0.735000	3.455795	3.455795
0.736000	3.450715	3.450715
0.737000	3.450715	3.450715
0.738000	3.450715	3.450715
0.739000	3.450715	3.450715
0.740000	3.450715	3.450715
0.741000	3.450715	3.450715
0.742000	3.450715	3.450715
0.743000	3.450715	3.450715
0.744000	3.450715	3.450715
0.745000	3.450715	3.450715
0.746000	3.455795	3.455795
0.747000	3.450715	3.450715
0.748000	3.450715	3.450715
0.749000	3.450715	3.450715
0.750000	3.450715	3.450715
0.751000	3.450715	3.450715
0.752000	3.450715	3.450715
0.753000	3.455795	3.455795
0.754000	3.455795	3.455795
0.755000	3.450715	3.450715
0.756000	3.445635	3.445635
0.757000	3.450715	3.450715
0.758000	3.450715	3.450715
0.759000	3.445635	3.445635
0.760000	3.445635	3.445635
0.761000	3.450715	3.450715
0.762000	3.445635	3.445635
0.763000	3.445635	3.445635
0.764000	3.450715	3.450715
0.765000	3.455795	3.455795
0.766000	3.450715	3.450715
0.767000	3.455795	3.455795
0.768000	3.450715	3.450715
0.769000	3.455795	3.455795
0.770000	3.455795	3.455795
0.771000	3.450715	3.450715
0.772000	3.450715	3.450715
0.773000	3.445635	3.445635
0.774000	3.455795	3.455795
0.775000	3.450715	3.450715
0.776000	3.455795	3.455795
0.777000	3.450715	3.450715
0.778000	3.455795	3.455795
0.779000	3.450715	3.450715
0.780000	3.450715	3.450715
0.781000	3.450715	3.450715
0.782000	3.445635	3.445635
0.783000	3.450715	3.450715
0.784000	3.450715	3.450715
0.785000	3.455795	3.455795
0.786000	3.455795	3.455795
0.787000	3.455795	3.455795
0.788000	3.450715	3.450715
0.789000	3.450715	3.450715
0.790000	3.455795	3.455795
0.791000	3.455795	3.455795
0.792000	3.450715	3.450715
0.793000	3.450715	3.450715
0.794000	3.455795	3.455795
0.795000	3.450715	3.450715
0.796000	3.450715	3.450715
0.797000	3.450715	3.450715
0.798000	3.450715	3.450715
0.799000	3.450715	3.450715
0.800000	3.450715	3.450715
0.801000	3.450715	3.450715
0.802000	3.450715	3.450715
0.803000	3.450715	3.450715
0.804000	3.450715	3.450715
0.805000	3.455795	3.455795
0.806000	3.455795	3.455795
0.807000	3.455795	3.455795
0.808000	3.460876	3.460876
0.809000	3.450715	3.450715
0.810000	3.450715	3.450715
0.811000	3.455795	3.455795
0.812000	3.455795	3.455795
0.813000	3.450715	3.450715
0.814000	3.455795	3.455795
0.815000	3.450715	3.450715
0.816000	3.445635	3.445635
0.817000	3.450715	3.450715
0.818000	3.450715	3.450715
0.819000	3.445635	3.445635
0.820000	3.455795	3.455795
0.821000	3.455795	3.455795
0.822000	3.450715	3.450715
0.823000	3.455795	3.455795
0.824000	3.455795	3.455795
0.825000	3.450715	3.450715
0.826000	3.455795	3.455795
0.827000	3.455795	3.455795
0.828000	3.455795	3.455795
0.829000	3.450715	3.450715
0.830000	3.455795	3.455795
0.831000	3.450715	3.450715
0.832000	3.455795	3.455795
0.833000	3.450715	3.450715
0.834000	3.445635	3.445635
0.835000	3.445635	3.445635
0.836000	3.450715	3.450715
0.837000	3.450715	3.450715
0.838000	3.450715	3.450715
0.839000	3.450715	3.450715
0.840000	3.450715	3.450715
0.841000	3.455795	3.455795
0.842000	3.450715	3.450715
0.843000	3.455795	3.455795
0.844000	3.455795	3.455795
0.845000	3.445635	3.445635
0.846000	3.455795	3.455795
0.847000	3.450715	3.450715
0.848000	3.450715	3.450715
0.849000	3.450715	3.450715
0.850000	3.450715	3.450715
0.851000	3.450715	3.450715
0.852000	3.450715	3.450715
0.853000	3.450715	3.450715
0.854000	3.450715	3.450715
0.855000	3.445635	3.445635
0.856000	3.450715	3.450715
0.857000	3.455795	3.455795
0.858000	3.450715	3.450715
0.859000	3.455795	3.455795
0.860000	3.455795	3.455795
0.861000	3.455795	3.455795
0.862000	3.450715	3.450715
0.863000	3.455795	3.455795
0.864000	3.455795	3.455795
0.865000	3.455795	3.455795
0.866000	3.450715	3.450715
0.867000	3.450715	3.450715
0.868000	3.455795	3.455795
0.869000	3.450715	3.450715
0.870000	3.450715	3.450715
0.871000	3.455795	3.455795
0.872000	3.445635	3.445635
0.873000	3.445635	3.445635
0.874000	3.450715	3.450715
0.875000	3.450715	3.450715
0.876000	3.450715	3.450715
0.877000	3.450715	3.450715
0.878000	3.445635	3.445635
0.879000	3.455795	3.455795
0.880000	3.455795	3.455795
0.881000	3.455795	3.455795
0.882000	3.450715	3.450715
0.883000	3.450715	3.450715
0.884000	3.450715	3.450715
0.885000	3.455795	3.455795
0.886000	3.445635	3.445635
0.887000	3.445635	3.445635
0.888000	3.445635	3.445635
0.889000	3.445635	3.445635
0.890000	3.450715	3.450715
0.891000	3.450715	3.450715
0.892000	3.450715	3.450715
0.893000	3.445635	3.445635
0.894000	3.450715	3.450715
0.895000	3.455795	3.455795
0.896000	3.450715	3.450715
0.897000	3.450715	3.450715
0.898000	3.460876	3.460876
0.899000	3.450715	3.450715
0.900000	3.455795	3.455795
0.901000	3.455795	3.455795
0.902000	3.455795	3.455795
0.903000	3.450715	3.450715
0.904000	3.445635	3.445635
0.905000	3.450715	3.450715
0.906000	3.445635	3.445635
0.907000	3.450715	3.450715
0.908000	3.450715	3.450715
0.909000	3.450715	3.450715
0.910000	3.445635	3.445635
0.911000	3.450715	3.450715
0.912000	3.445635	3.445635
0.913000	3.445635	3.445635
0.914000	3.450715	3.450715
0.915000	3.450715	3.450715
0.916000	3.450715	3.450715
0.917000	3.450715	3.450715
0.918000	3.450715	3.450715
0.919000	3.445635	3.445635
0.920000	3.450715	3.450715
0.921000	3.450715	3.450715
0.922000	3.445635	3.445635
0.923000	3.445635	3.445635
0.924000	3.455795	3.455795
0.925000	3.445635	3.445635
0.926000	3.450715	3.450715
0.927000	3.450715	3.450715
0.928000	3.445635	3.445635
0.929000	3.450715	3.450715
0.930000	3.450715	3.450715
0.931000	3.450715	3.450715
0.932000	3.450715	3.450715
0.933000	3.450715	3.450715
0.934000	3.450715	3.450715
0.935000	3.450715	3.450715
0.936000	3.455795	3.455795
0.937000	3.450715	3.450715
0.938000	3.450715	3.450715
0.939000	3.455795	3.455795
0.940000	3.455795	3.455795
0.941000	3.445635	3.445635
0.942000	3.445635	3.445635
0.943000	3.450715	3.450715
0.944000	3.445635	3.445635
0.945000	3.445635	3.445635
0.946000	3.445635	3.445635
0.947000	3.445635	3.445635
0.948000	3.445635	3.445635
0.949000	3.445635	3.445635
0.950000	3.450715	3.450715
0.951000	3.450715	3.450715
0.952000	3.450715	3.450715
0.953000	3.445635	3.445635
0.954000	3.450715	3.450715
0.955000	3.455795	3.455795
0.956000	3.450715	3.450715
0.957000	3.445635	3.445635
0.958000	3.450715	3.450715
0.959000	3.450715	3.450715
0.960000	3.450715	3.450715
0.961000	3.445635	3.445635
0.962000	3.450715	3.450715
0.963000	3.445635	3.445635
0.964000	3.450715	3.450715
0.965000	3.445635	3.445635
0.966000	3.450715	3.450715
0.967000	3.450715	3.450715
0.968000	3.450715	3.450715
0.969000	3.455795	3.455795
0.970000	3.450715	3.450715
0.971000	3.450715	3.450715
0.972000	3.455795	3.455795
0.973000	3.455795	3.455795
0.974000	3.450715	3.450715
0.975000	3.450715	3.450715
0.976000	3.450715	3.450715
0.977000	3.450715	3.450715
0.978000	3.450715	3.450715
0.979000	3.450715	3.450715
0.980000	3.450715	3.450715
0.981000	3.450715	3.450715
0.982000	3.445635	3.445635
0.983000	3.450715	3.450715
0.984000	3.450715	3.450715
0.985000	3.450715	3.450715
0.986000	3.445635	3.445635
0.987000	3.445635	3.445635
0.988000	3.450715	3.450715
0.989000	3.455795	3.455795
0.990000	3.455795	3.455795
0.991000	3.455795	3.455795
0.992000	3.455795	3.455795
0.993000	3.450715	3.450715
0.994000	3.450715	3.450715
0.995000	3.450715	3.450715
0.996000	3.445635	3.445635
0.997000	3.450715	3.450715
0.998000	3.450715	3.450715
0.999000	3.445635	3.445635
1.000000	3.450715	3.450715
1.001000	3.445635	3.445635
1.002000	3.450715	3.450715
1.003000	3.450715	3.450715
1.004000	3.450715	3.450715
1.005000	3.445635	3.445635
1.006000	3.455795	3.455795
1.007000	3.455795	3.455795
1.008000	3.455795	3.455795
1.009000	3.450715	3.450715
1.010000	3.450715	3.450715
1.011000	3.455795	3.455795
1.012000	3.450715	3.450715
1.013000	3.450715	3.450715
1.014000	3.445635	3.445635
1.015000	3.450715	3.450715
1.016000	3.450715	3.450715
1.017000	3.450715	3.450715
1.018000	3.445635	3.445635
1.019000	3.445635	3.445635
1.020000	3.450715	3.450715
1.021000	3.450715	3.450715
1.022000	3.445635	3.445635
1.023000	3.455795	3.455795
1.024000	3.445635	3.445635
1.025000	3.450715	3.450715
1.026000	3.450715	3.450715
1.027000	3.455795	3.455795
1.028000	3.455795	3.455795
1.029000	3.455795	3.455795
1.030000	3.450715	3.450715
1.031000	3.455795	3.455795
1.032000	3.455795	3.455795
1.033000	3.450715	3.450715
1.034000	3.450715	3.450715
1.035000	3.450715	3.450715
1.036000	3.445635	3.445635
1.037000	3.445635	3.445635
1.038000	3.450715	3.450715
1.039000	3.450715	3.450715
1.040000	3.450715	3.450715
1.041000	3.450715	3.450715
1.042000	3.455795	3.455795
1.043000	3.450715	3.450715
1.044000	3.455795	3.455795
1.045000	3.455795	3.455795
1.046000	3.450715	3.450715
1.047000	3.450715	3.450715
1.048000	3.450715	3.450715
1.049000	3.450715	3.450715
1.050000	3.450715	3.450715
1.051000	3.450715	3.450715
1.052000	3.450715	3.450715
1.053000	3.445635	3.445635
1.054000	3.445635	3.445635
1.055000	3.450715	3.450715
1.056000	3.445635	3.445635
1.057000	3.450715	3.450715
1.058000	3.445635	3.445635
1.059000	3.445635	3.445635
1.060000	3.445635	3.445635
1.061000	3.450715	3.450715
1.062000	3.445635	3.445635
1.063000	3.460876	3.460876
1.064000	3.455795	3.455795
1.065000	3.450715	3.450715
1.066000	3.455795	3.455795
1.067000	3.450715	3.450715
1.068000	3.450715	3.450715
1.069000	3.455795	3.455795
1.070000	3.450715	3.450715
1.071000	3.445635	3.445635
1.072000	3.445635	3.445635
1.073000	3.445635	3.445635
1.074000	3.445635	3.445635
1.075000	3.450715	3.450715
1.076000	3.450715	3.450715
1.077000	3.450715	3.450715
1.078000	3.450715	3.450715
1.079000	3.450715	3.450715
1.080000	3.450715	3.450715
1.081000	3.450715	3.450715
1.082000	3.450715	3.450715
1.083000	3.445635	3.445635
1.084000	3.455795	3.455795
1.085000	3.450715	3.450715
1.086000	3.450715	3.450715
1.087000	3.450715	3.450715
1.088000	3.450715	3.450715
1.089000	3.450715	3.450715
1.090000	3.450715	3.450715
1.091000	3.445635	3.445635
1.092000	3.450715	3.450715
1.093000	3.445635	3.445635
1.094000	3.445635	3.445635
1.095000	3.445635	3.445635
1.096000	3.445635	3.445635
1.097000	3.445635	3.445635
1.098000	3.450715	3.450715
1.099000	3.455795	3.455795
1.100000	3.445635	3.445635
1.101000	3.450715	3.450715
1.102000	3.450715	3.450715
1.103000	3.450715	3.450715
1.104000	3.440555	3.440555
1.105000	3.445635	3.445635
1.106000	3.445635	3.445635
1.107000	3.445635	3.445635
1.108000	3.450715	3.450715
1.109000	3.445635	3.445635
1.110000	3.445635	3.445635
1.111000	3.450715	3.450715
1.112000	3.445635	3.445635
1.113000	3.445635	3.445635
1.114000	3.445635	3.445635
1.115000	3.450715	3.450715
1.116000	3.455795	3.455795
1.117000	3.445635	3.445635
1.118000	3.455795	3.455795
1.119000	3.450715	3.450715
1.120000	3.455795	3.455795
1.121000	3.445635	3.445635
1.122000	3.450715	3.450715
1.123000	3.455795	3.455795
1.124000	3.450715	3.450715
1.125000	3.445635	3.445635
1.126000	3.450715	3.450715
1.127000	3.445635	3.445635
1.128000	3.445635	3.445635
1.129000	3.445635	3.445635
1.130000	3.445635	3.445635
1.131000	3.445635	3.445635
1.132000	3.445635	3.445635
1.133000	3.450715	3.450715
1.134000	3.450715	3.450715
1.135000	3.450715	3.450715
1.136000	3.450715	3.450715
1.137000	3.455795	3.455795
1.138000	3.455795	3.455795
1.139000	3.450715	3.450715
1.140000	3.450715	3.450715
1.141000	3.455795	3.455795
1.142000	3.450715	3.450715
1.143000	3.445635	3.445635
1.144000	3.450715	3.450715
1.145000	3.450715	3.450715
1.146000	3.445635	3.445635
1.147000	3.445635	3.445635
1.148000	3.450715	3.450715
1.149000	3.445635	3.445635
1.150000	3.445635	3.445635
1.151000	3.450715	3.450715
1.152000	3.450715	3.450715
1.153000	3.450715	3.450715
1.154000	3.445635	3.445635
1.155000	3.455795	3.455795
1.156000	3.455795	3.455795
1.157000	3.455795	3.455795
1.158000	3.450715	3.450715
1.159000	3.450715	3.450715
1.160000	3.455795	3.455795
1.161000	3.450715	3.450715
1.162000	3.450715	3.450715
1.163000	3.450715	3.450715
1.164000	3.450715	3.450715
1.165000	3.450715	3.450715
1.166000	3.450715	3.450715
1.167000	3.445635	3.445635
1.168000	3.445635	3.445635
1.169000	3.450715	3.450715
1.170000	3.445635	3.445635
1.171000	3.445635	3.445635
1.172000	3.450715	3.450715
1.173000	3.450715	3.450715
1.174000	3.450715	3.450715
1.175000	3.455795	3.455795
1.176000	3.455795	3.455795
1.177000	3.450715	3.450715
1.178000	3.450715	3.450715
1.179000	3.450715	3.450715
1.180000	3.450715	3.450715
1.181000	3.450715	3.450715
1.182000	3.450715	3.450715
1.183000	3.450715	3.450715
1.184000	3.450715	3.450715
1.185000	3.450715	3.450715
1.186000	3.450715	3.450715
1.187000	3.445635	3.445635
1.188000	3.445635	3.445635
1.189000	3.450715	3.450715
1.190000	3.445635	3.445635
1.191000	3.455795	3.455795
1.192000	3.455795	3.455795
1.193000	3.455795	3.455795
1.194000	3.455795	3.455795
1.195000	3.455795	3.455795
1.196000	3.450715	3.450715
1.197000	3.450715	3.450715
1.198000	3.455795	3.455795
1.199000	3.450715	3.450715
1.200000	3.445635	3.445635
1.201000	3.450715	3.450715
1.202000	3.445635	3.445635
1.203000	3.455795	3.455795
1.204000	3.450715	3.450715
1.205000	3.445635	3.445635
1.206000	3.455795	3.455795
1.207000	3.450715	3.450715
1.208000	3.450715	3.450715
1.209000	3.450715	3.450715
1.210000	3.455795	3.455795
1.211000	3.450715	3.450715
1.212000	3.450715	3.450715
1.213000	3.445635	3.445635
1.214000	3.450715	3.450715
1.215000	3.450715	3.450715
1.216000	3.450715	3.450715
1.217000	3.445635	3.445635
1.218000	3.445635	3.445635
1.219000	3.450715	3.450715
1.220000	3.450715	3.450715
1.221000	3.445635	3.445635
1.222000	3.450715	3.450715
1.223000	3.445635	3.445635
1.224000	3.450715	3.450715
1.225000	3.450715	3.450715
1.226000	3.445635	3.445635
1.227000	3.450715	3.450715
1.228000	3.450715	3.450715
1.229000	3.450715	3.450715
1.230000	3.455795	3.455795
1.231000	3.450715	3.450715
1.232000	3.455795	3.455795
1.233000	3.450715	3.450715
1.234000	3.445635	3.445635
1.235000	3.450715	3.450715
1.236000	3.450715	3.450715
1.237000	3.445635	3.445635
1.238000	3.450715	3.450715
1.239000	3.450715	3.450715
1.240000	3.450715	3.450715
1.241000	3.450715	3.450715
1.242000	3.445635	3.445635
1.243000	3.450715	3.450715
1.244000	3.450715	3.450715
1.245000	3.445635	3.445635
1.246000	3.450715	3.450715
1.247000	3.455795	3.455795
1.248000	3.450715	3.450715
1.249000	3.455795	3.455795
1.250000	3.450715	3.450715
1.251000	3.450715	3.450715
1.252000	3.450715	3.450715
1.253000	3.450715	3.450715
1.254000	3.450715	3.450715
1.255000	3.450715	3.450715
1.256000	3.450715	3.450715
1.257000	3.445635	3.445635
1.258000	3.450715	3.450715
1.259000	3.450715	3.450715
1.260000	3.445635	3.445635
1.261000	3.445635	3.445635
1.262000	3.450715	3.450715
1.263000	3.445635	3.445635
1.264000	3.450715	3.450715
1.265000	3.450715	3.450715
1.266000	3.450715	3.450715
1.267000	3.450715	3.450715
1.268000	3.455795	3.455795
1.269000	3.450715	3.450715
1.270000	3.450715	3.450715
1.271000	3.450715	3.450715
1.272000	3.450715	3.450715
1.273000	3.450715	3.450715
1.274000	3.445635	3.445635
1.275000	3.445635	3.445635
1.276000	3.445635	3.445635
1.277000	3.445635	3.445635
1.278000	3.445635	3.445635
1.279000	3.445635	3.445635
1.280000	3.445635	3.445635
1.281000	3.450715	3.450715
1.282000	3.450715	3.450715
1.283000	3.450715	3.450715
1.284000	3.450715	3.450715
1.285000	3.455795	3.455795
1.286000	3.450715	3.450715
1.287000	3.450715	3.450715
1.288000	3.455795	3.455795
1.289000	3.450715	3.450715
1.290000	3.445635	3.445635
1.291000	3.455795	3.455795
1.292000	3.445635	3.445635
1.293000	3.445635	3.445635
1.294000	3.445635	3.445635
1.295000	3.450715	3.450715
1.296000	3.445635	3.445635
1.297000	3.450715	3.450715
1.298000	3.450715	3.450715
1.299000	3.445635	3.445635
1.300000	3.450715	3.450715
1.301000	3.450715	3.450715
1.302000	3.455795	3.455795
1.303000	3.450715	3.450715
1.304000	3.450715	3.450715
1.305000	3.455795	3.455795
1.306000	3.450715	3.450715
1.307000	3.450715	3.450715
1.308000	3.450715	3.450715
1.309000	3.450715	3.450715
1.310000	3.450715	3.450715
1.311000	3.445635	3.445635
1.312000	3.455795	3.455795
1.313000	3.445635	3.445635
1.314000	3.440555	3.440555
1.315000	3.445635	3.445635
1.316000	3.445635	3.445635
1.317000	3.445635	3.445635
1.318000	3.450715	3.450715
1.319000	3.450715	3.450715
1.320000	3.450715	3.450715
1.321000	3.450715	3.450715
1.322000	3.450715	3.450715
1.323000	3.450715	3.450715
1.324000	3.450715	3.450715
1.325000	3.450715	3.450715
1.326000	3.445635	3.445635
1.327000	3.445635	3.445635
1.328000	3.445635	3.445635
1.329000	3.445635	3.445635
1.330000	3.450715	3.450715
1.331000	3.450715	3.450715
1.332000	3.445635	3.445635
1.333000	3.450715	3.450715
1.334000	3.445635	3.445635
1.335000	3.450715	3.450715
1.336000	3.450715	3.450715
1.337000	3.450715	3.450715
1.338000	3.450715	3.450715
1.339000	3.445635	3.445635
1.340000	3.445635	3.445635
1.341000	3.455795	3.455795
1.342000	3.450715	3.450715
1.343000	3.455795	3.455795
1.344000	3.450715	3.450715
1.345000	3.450715	3.450715
1.346000	3.450715	3.450715
1.347000	3.450715	3.450715
1.348000	3.445635	3.445635
1.349000	3.455795	3.455795
1.350000	3.450715	3.450715
1.351000	3.450715	3.450715
1.352000	3.445635	3.445635
1.353000	3.450715	3.450715
1.354000	3.450715	3.450715
1.355000	3.450715	3.450715
1.356000	3.455795	3.455795
1.357000	3.450715	3.450715
1.358000	3.445635	3.445635
1.359000	3.450715	3.450715
1.360000	3.455795	3.455795
1.361000	3.450715	3.450715
1.362000	3.450715	3.450715
1.363000	3.450715	3.450715
1.364000	3.450715	3.450715
1.365000	3.450715	3.450715
1.366000	3.450715	3.450715
1.367000	3.445635	3.445635
1.368000	3.445635	3.445635
1.369000	3.450715	3.450715
1.370000	3.445635	3.445635
1.371000	3.450715	3.450715
1.372000	3.450715	3.450715
1.373000	3.450715	3.450715
1.374000	3.450715	3.450715
1.375000	3.450715	3.450715
1.376000	3.450715	3.450715
1.377000	3.455795	3.455795
1.378000	3.450715	3.450715
1.379000	3.455795	3.455795
1.380000	3.455795	3.455795
1.381000	3.455795	3.455795
1.382000	3.455795	3.455795
1.383000	3.455795	3.455795
1.384000	3.455795	3.455795
1.385000	3.450715	3.450715
1.386000	3.450715	3.450715
1.387000	3.450715	3.450715
1.388000	3.445635	3.445635
1.389000	3.450715	3.450715
1.390000	3.450715	3.450715
1.391000	3.450715	3.450715
1.392000	3.450715	3.450715
1.393000	3.455795	3.455795
1.394000	3.445635	3.445635
1.395000	3.450715	3.450715
1.396000	3.450715	3.450715
1.397000	3.455795	3.455795
1.398000	3.450715	3.450715
1.399000	3.450715	3.450715
1.400000	3.450715	3.450715
1.401000	3.450715	3.450715
1.402000	3.455795	3.455795
1.403000	3.450715	3.450715
1.404000	3.445635	3.445635
1.405000	3.445635	3.445635
1.406000	3.450715	3.450715
1.407000	3.455795	3.455795
1.408000	3.450715	3.450715
1.409000	3.445635	3.445635
1.410000	3.450715	3.450715
1.411000	3.450715	3.450715
1.412000	3.450715	3.450715
1.413000	3.455795	3.455795
1.414000	3.445635	3.445635
1.415000	3.455795	3.455795
1.416000	3.450715	3.450715
1.417000	3.455795	3.455795
1.418000	3.450715	3.450715
1.419000	3.455795	3.455795
1.420000	3.450715	3.450715
1.421000	3.455795	3.455795
1.422000	3.450715	3.450715
1.423000	3.450715	3.450715
1.424000	3.445635	3.445635
1.425000	3.450715	3.450715
1.426000	3.445635	3.445635
1.427000	3.450715	3.450715
1.428000	3.450715	3.450715
1.429000	3.445635	3.445635
1.430000	3.450715	3.450715
1.431000	3.450715	3.450715
1.432000	3.450715	3.450715
1.433000	3.455795	3.455795
1.434000	3.455795	3.455795
1.435000	3.455795	3.455795
1.436000	3.450715	3.450715
1.437000	3.455795	3.455795
1.438000	3.450715	3.450715
1.439000	3.450715	3.450715
1.440000	3.450715	3.450715
1.441000	3.445635	3.445635
1.442000	3.450715	3.450715
1.443000	3.445635	3.445635
1.444000	3.450715	3.450715
1.445000	3.445635	3.445635
1.446000	3.445635	3.445635
1.447000	3.450715	3.450715
1.448000	3.450715	3.450715
1.449000	3.450715	3.450715
1.450000	3.455795	3.455795
1.451000	3.455795	3.455795
1.452000	3.450715	3.450715
1.453000	3.450715	3.450715
1.454000	3.455795	3.455795
1.455000	3.450715	3.450715
1.456000	3.455795	3.455795
1.457000	3.450715	3.450715
1.458000	3.450715	3.450715
1.459000	3.450715	3.450715
1.460000	3.450715	3.450715
1.461000	3.450715	3.450715
1.462000	3.450715	3.450715
1.463000	3.450715	3.450715
1.464000	3.450715	3.450715
1.465000	3.455795	3.455795
1.466000	3.450715	3.450715
1.467000	3.450715	3.450715
1.468000	3.455795	3.455795
1.469000	3.455795	3.455795
1.470000	3.450715	3.450715
1.471000	3.450715	3.450715
1.472000	3.450715	3.450715
1.473000	3.450715	3.450715
1.474000	3.450715	3.450715
1.475000	3.450715	3.450715
1.476000	3.450715	3.450715
1.477000	3.445635	3.445635
1.478000	3.445635	3.445635
1.479000	3.450715	3.450715
1.480000	3.445635	3.445635
1.481000	3.450715	3.450715
1.482000	3.445635	3.445635
1.483000	3.445635	3.445635
1.484000	3.450715	3.450715
1.485000	3.450715	3.450715
1.486000	3.455795	3.455795
1.487000	3.455795	3.455795
1.488000	3.450715	3.450715
1.489000	3.455795	3.455795
1.490000	3.450715	3.450715
1.491000	3.455795	3.455795
1.492000	3.455795	3.455795
1.493000	3.450715	3.450715
1.494000	3.450715	3.450715
1.495000	3.450715	3.450715
1.496000	3.450715	3.450715
1.497000	3.445635	3.445635
1.498000	3.450715	3.450715
1.499000	3.445635	3.445635
1.500000	3.445635	3.445635
1.501000	3.445635	3.445635
1.502000	3.450715	3.450715
1.503000	3.450715	3.450715
1.504000	3.455795	3.455795
1.505000	3.455795	3.455795
1.506000	3.450715	3.450715
1.507000	3.450715	3.450715
1.508000	3.450715	3.450715
1.509000	3.450715	3.450715
1.510000	3.455795	3.455795
1.511000	3.455795	3.455795
1.512000	3.445635	3.445635
1.513000	3.455795	3.455795
1.514000	3.450715	3.450715
1.515000	3.450715	3.450715
1.516000	3.450715	3.450715
1.517000	3.445635	3.445635
1.518000	3.450715	3.450715
1.519000	3.445635	3.445635
1.520000	3.445635	3.445635
1.521000	3.450715	3.450715
1.522000	3.450715	3.450715
1.523000	3.445635	3.445635
1.524000	3.450715	3.450715
1.525000	3.450715	3.450715
1.526000	3.450715	3.450715
1.527000	3.455795	3.455795
1.528000	3.450715	3.450715
1.529000	3.450715	3.450715
1.530000	3.455795	3.455795
1.531000	3.445635	3.445635
1.532000	3.450715	3.450715
1.533000	3.450715	3.450715
1.534000	3.445635	3.445635
1.535000	3.450715	3.450715
1.536000	3.450715	3.450715
1.537000	3.445635	3.445635
1.538000	3.450715	3.450715
1.539000	3.445635	3.445635
1.540000	3.450715	3.450715
1.541000	3.455795	3.455795
1.542000	3.455795	3.455795
1.543000	3.450715	3.450715
1.544000	3.455795	3.455795
1.545000	3.455795	3.455795
1.546000	3.455795	3.455795
1.547000	3.455795	3.455795
1.548000	3.450715	3.450715
1.549000	3.440555	3.440555
1.550000	3.445635	3.445635
1.551000	3.445635	3.445635
1.552000	3.445635	3.445635
1.553000	3.445635	3.445635
1.554000	3.445635	3.445635
1.555000	3.445635	3.445635
1.556000	3.450715	3.450715
1.557000	3.445635	3.445635
1.558000	3.450715	3.450715
1.559000	3.445635	3.445635
1.560000	3.450715	3.450715
1.561000	3.450715	3.450715
1.562000	3.455795	3.455795
1.563000	3.450715	3.450715
1.564000	3.450715	3.450715
1.565000	3.455795	3.455795
1.566000	3.450715	3.450715
1.567000	3.450715	3.450715
1.568000	3.455795	3.455795
1.569000	3.450715	3.450715
1.570000	3.450715	3.450715
1.571000	3.450715	3.450715
1.572000	3.445635	3.445635
1.573000	3.445635	3.445635
1.574000	3.445635	3.445635
1.575000	3.445635	3.445635
1.576000	3.450715	3.450715
1.577000	3.450715	3.450715
1.578000	3.445635	3.445635
1.579000	3.450715	3.450715
1.580000	3.450715	3.450715
1.581000	3.455795	3.455795
1.582000	3.455795	3.455795
1.583000	3.455795	3.455795
1.584000	3.450715	3.450715
1.585000	3.445635	3.445635
1.586000	3.445635	3.445635
1.587000	3.450715	3.450715
1.588000	3.450715	3.450715
1.589000	3.450715	3.450715
1.590000	3.445635	3.445635
1.591000	3.445635	3.445635
1.592000	3.450715	3.450715
1.593000	3.450715	3.450715
1.594000	3.445635	3.445635
1.595000	3.450715	3.450715
1.596000	3.450715	3.450715
1.597000	3.450715	3.450715
1.598000	3.455795	3.455795
1.599000	3.450715	3.450715
1.600000	3.450715	3.450715
1.601000	3.450715	3.450715
1.602000	3.450715	3.450715
1.603000	3.450715	3.450715
1.604000	3.450715	3.450715
1.605000	3.455795	3.455795
1.606000	3.450715	3.450715
1.607000	3.450715	3.450715
1.608000	3.450715	3.450715
1.609000	3.450715	3.450715
1.610000	3.445635	3.445635
1.611000	3.450715	3.450715
1.612000	3.445635	3.445635
1.613000	3.450715	3.450715
1.614000	3.450715	3.450715
1.615000	3.450715	3.450715
1.616000	3.450715	3.450715
1.617000	3.450715	3.450715
1.618000	3.450715	3.450715
1.619000	3.450715	3.450715
1.620000	3.450715	3.450715
1.621000	3.450715	3.450715
1.622000	3.450715	3.450715
1.623000	3.450715	3.450715
1.624000	3.445635	3.445635
1.625000	3.450715	3.450715
1.626000	3.445635	3.445635
1.627000	3.445635	3.445635
1.628000	3.445635	3.445635
1.629000	3.445635	3.445635
1.630000	3.445635	3.445635
1.631000	3.445635	3.445635
1.632000	3.450715	3.450715
1.633000	3.450715	3.450715
1.634000	3.445635	3.445635
1.635000	3.450715	3.450715
1.636000	3.450715	3.450715
1.637000	3.455795	3.455795
1.638000	3.445635	3.445635
1.639000	3.450715	3.450715
1.640000	3.450715	3.450715
1.641000	3.450715	3.450715
1.642000	3.455795	3.455795
1.643000	3.450715	3.450715
1.644000	3.450715	3.450715
1.645000	3.445635	3.445635
1.646000	3.445635	3.445635
1.647000	3.450715	3.450715
1.648000	3.445635	3.445635
1.649000	3.445635	3.445635
1.650000	3.450715	3.450715
1.651000	3.450715	3.450715
1.652000	3.450715	3.450715
1.653000	3.450715	3.450715
1.654000	3.455795	3.455795
1.655000	3.455795	3.455795
1.656000	3.455795	3.455795
1.657000	3.450715	3.450715
1.658000	3.450715	3.450715
1.659000	3.450715	3.450715
1.660000	3.455795	3.455795
1.661000	3.455795	3.455795
1.662000	3.445635	3.445635
1.663000	3.450715	3.450715
1.664000	3.450715	3.450715
1.665000	3.450715	3.450715
1.666000	3.450715	3.450715
1.667000	3.450715	3.450715
1.668000	3.445635	3.445635
1.669000	3.450715	3.450715
1.670000	3.445635	3.445635
1.671000	3.450715	3.450715
1.672000	3.445635	3.445635
1.673000	3.450715	3.450715
1.674000	3.450715	3.450715
1.675000	3.445635	3.445635
1.676000	3.450715	3.450715
1.677000	3.445635	3.445635
1.678000	3.450715	3.450715
1.679000	3.450715	3.450715
1.680000	3.445635	3.445635
1.681000	3.450715	3.450715
1.682000	3.445635	3.445635
1.683000	3.445635	3.445635
1.684000	3.445635	3.445635
1.685000	3.440555	3.440555
1.686000	3.445635	3.445635
1.687000	3.450715	3.450715
1.688000	3.450715	3.450715
1.689000	3.450715	3.450715
1.690000	3.450715	3.450715
1.691000	3.450715	3.450715
1.692000	3.450715	3.450715
1.693000	3.450715	3.450715
1.694000	3.450715	3.450715
1.695000	3.450715	3.450715
1.696000	3.445635	3.445635
1.697000	3.450715	3.450715
1.698000	3.445635	3.445635
1.699000	3.450715	3.450715
1.700000	3.450715	3.450715
1.701000	3.445635	3.445635
1.702000	3.445635	3.445635
1.703000	3.445635	3.445635
1.704000	3.445635	3.445635
1.705000	3.445635	3.445635
1.706000	3.450715	3.450715
1.707000	3.450715	3.450715
1.708000	3.450715	3.450715
1.709000	3.450715	3.450715
1.710000	3.445635	3.445635
1.711000	3.450715	3.450715
1.712000	3.445635	3.445635
1.713000	3.455795	3.455795
1.714000	3.450715	3.450715
1.715000	3.450715	3.450715
1.716000	3.445635	3.445635
1.717000	3.450715	3.450715
1.718000	3.445635	3.445635
1.719000	3.450715	3.450715
1.720000	3.445635	3.445635
1.721000	3.445635	3.445635
1.722000	3.445635	3.445635
1.723000	3.445635	3.445635
1.724000	3.445635	3.445635
1.725000	3.445635	3.445635
1.726000	3.445635	3.445635
1.727000	3.455795	3.455795
1.728000	3.450715	3.450715
1.729000	3.445635	3.445635
1.730000	3.450715	3.450715
1.731000	3.450715	3.450715
1.732000	3.455795	3.455795
1.733000	3.445635	3.445635
1.734000	3.445635	3.445635
1.735000	3.445635	3.445635
1.736000	3.445635	3.445635
1.737000	3.445635	3.445635
1.738000	3.450715	3.450715
1.739000	3.445635	3.445635
1.740000	3.445635	3.445635
1.741000	3.450715	3.450715
1.742000	3.445635	3.445635
1.743000	3.450715	3.450715
1.744000	3.450715	3.450715
1.745000	3.450715	3.450715
1.746000	3.445635	3.445635
1.747000	3.450715	3.450715
1.748000	3.450715	3.450715
1.749000	3.450715	3.450715
1.750000	3.445635	3.445635
1.751000	3.445635	3.445635
1.752000	3.450715	3.450715
1.753000	3.455795	3.455795
1.754000	3.450715	3.450715
1.755000	3.445635	3.445635
1.756000	3.445635	3.445635
1.757000	3.445635	3.445635
1.758000	3.445635	3.445635
1.759000	3.445635	3.445635
1.760000	3.445635	3.445635
1.761000	3.450715	3.450715
1.762000	3.445635	3.445635
1.763000	3.450715	3.450715
1.764000	3.450715	3.450715
1.765000	3.450715	3.450715
1.766000	3.445635	3.445635
1.767000	3.450715	3.450715
1.768000	3.450715	3.450715
1.769000	3.450715	3.450715
1.770000	3.450715	3.450715
1.771000	3.450715	3.450715
1.772000	3.450715	3.450715
1.773000	3.450715	3.450715
1.774000	3.445635	3.445635
1.775000	3.445635	3.445635
1.776000	3.450715	3.450715
1.777000	3.445635	3.445635
1.778000	3.445635	3.445635
1.779000	3.450715	3.450715
1.780000	3.445635	3.445635
1.781000	3.450715	3.450715
1.782000	3.450715	3.450715
1.783000	3.450715	3.450715
1.784000	3.455795	3.455795
1.785000	3.455795	3.455795
1.786000	3.450715	3.450715
1.787000	3.455795	3.455795
1.788000	3.450715	3.450715
1.789000	3.450715	3.450715
1.790000	3.450715	3.450715
1.791000	3.450715	3.450715
1.792000	3.445635	3.445635
1.793000	3.445635	3.445635
1.794000	3.440555	3.440555
1.795000	3.450715	3.450715
1.796000	3.445635	3.445635
1.797000	3.440555	3.440555
1.798000	3.450715	3.450715
1.799000	3.450715	3.450715
1.800000	3.455795	3.455795
1.801000	3.450715	3.450715
1.802000	3.450715	3.450715
1.803000	3.450715	3.450715
1.804000	3.455795	3.455795
1.805000	3.455795	3.455795
1.806000	3.450715	3.450715
1.807000	3.450715	3.450715
1.808000	3.450715	3.450715
1.809000	3.445635	3.445635
1.810000	3.445635	3.445635
1.811000	3.445635	3.445635
1.812000	3.445635	3.445635
1.813000	3.450715	3.450715
1.814000	3.450715	3.450715
1.815000	3.450715	3.450715
1.816000	3.450715	3.450715
1.817000	3.445635	3.445635
1.818000	3.450715	3.450715
1.819000	3.450715	3.450715
1.820000	3.450715	3.450715
1.821000	3.455795	3.455795
1.822000	3.455795	3.455795
1.823000	3.450715	3.450715
1.824000	3.455795	3.455795
1.825000	3.455795	3.455795
1.826000	3.450715	3.450715
1.827000	3.450715	3.450715
1.828000	3.450715	3.450715
1.829000	3.445635	3.445635
1.830000	3.450715	3.450715
1.831000	3.445635	3.445635
1.832000	3.445635	3.445635
1.833000	3.445635	3.445635
1.834000	3.445635	3.445635
1.835000	3.455795	3.455795
1.836000	3.450715	3.450715
1.837000	3.450715	3.450715
1.838000	3.450715	3.450715
1.839000	3.455795	3.455795
1.840000	3.450715	3.450715
1.841000	3.455795	3.455795
1.842000	3.450715	3.450715
1.843000	3.455795	3.455795
1.844000	3.450715	3.450715
1.845000	3.445635	3.445635
1.846000	3.445635	3.445635
1.847000	3.445635	3.445635
1.848000	3.450715	3.450715
1.849000	3.450715	3.450715
1.850000	3.445635	3.445635
1.851000	3.445635	3.445635
1.852000	3.445635	3.445635
1.853000	3.445635	3.445635
1.854000	3.450715	3.450715
1.855000	3.450715	3.450715
1.856000	3.450715	3.450715
1.857000	3.450715	3.450715
1.858000	3.450715	3.450715
1.859000	3.455795	3.455795
1.860000	3.450715	3.450715
1.861000	3.450715	3.450715
1.862000	3.450715	3.450715
1.863000	3.450715	3.450715
1.864000	3.450715	3.450715
1.865000	3.450715	3.450715
1.866000	3.445635	3.445635
1.867000	3.445635	3.445635
1.868000	3.450715	3.450715
1.869000	3.445635	3.445635
1.870000	3.445635	3.445635
1.871000	3.450715	3.450715
1.872000	3.445635	3.445635
1.873000	3.445635	3.445635
1.874000	3.450715	3.450715
1.875000	3.450715	3.450715
1.876000	3.450715	3.450715
1.877000	3.450715	3.450715
1.878000	3.455795	3.455795
1.879000	3.455795	3.455795
1.880000	3.450715	3.450715
1.881000	3.450715	3.450715
1.882000	3.450715	3.450715
1.883000	3.450715	3.450715
1.884000	3.445635	3.445635
1.885000	3.450715	3.450715
1.886000	3.450715	3.450715
1.887000	3.450715	3.450715
1.888000	3.445635	3.445635
1.889000	3.455795	3.455795
1.890000	3.450715	3.450715
1.891000	3.450715	3.450715
1.892000	3.450715	3.450715
1.893000	3.450715	3.450715
1.894000	3.455795	3.455795
1.895000	3.450715	3.450715
1.896000	3.455795	3.455795
1.897000	3.450715	3.450715
1.898000	3.450715	3.450715
1.899000	3.455795	3.455795
1.900000	3.455795	3.455795
1.901000	3.450715	3.450715
1.902000	3.445635	3.445635
1.903000	3.445635	3.445635
1.904000	3.450715	3.450715
1.905000	3.450715	3.450715
1.906000	3.450715	3.450715
1.907000	3.450715	3.450715
1.908000	3.450715	3.450715
1.909000	3.445635	3.445635
1.910000	3.450715	3.450715
1.911000	3.450715	3.450715
1.912000	3.450715	3.450715
1.913000	3.450715	3.450715
1.914000	3.450715	3.450715
1.915000	3.455795	3.455795
1.916000	3.455795	3.455795
1.917000	3.450715	3.450715
1.918000	3.455795	3.455795
1.919000	3.455795	3.455795
1.920000	3.445635	3.445635
1.921000	3.450715	3.450715
1.922000	3.450715	3.450715
1.923000	3.445635	3.445635
1.924000	3.455795	3.455795
1.925000	3.450715	3.450715
1.926000	3.455795	3.455795
1.927000	3.450715	3.450715
1.928000	3.445635	3.445635
1.929000	3.450715	3.450715
1.930000	3.450715	3.450715
1.931000	3.455795	3.455795
1.932000	3.450715	3.450715
1.933000	3.455795	3.455795
1.934000	3.455795	3.455795
1.935000	3.450715	3.450715
1.936000	3.455795	3.455795
1.937000	3.450715	3.450715
1.938000	3.455795	3.455795
1.939000	3.450715	3.450715
1.940000	3.450715	3.450715
1.941000	3.450715	3.450715
1.942000	3.445635	3.445635
1.943000	3.445635	3.445635
1.944000	3.450715	3.450715
1.945000	3.445635	3.445635
1.946000	3.450715	3.450715
1.947000	3.445635	3.445635
1.948000	3.455795	3.455795
1.949000	3.455795	3.455795
1.950000	3.455795	3.455795
1.951000	3.450715	3.450715
1.952000	3.455795	3.455795
1.953000	3.455795	3.455795
1.954000	3.455795	3.455795
1.955000	3.450715	3.450715
1.956000	3.455795	3.455795
1.957000	3.450715	3.450715
1.958000	3.450715	3.450715
1.959000	3.450715	3.450715
1.960000	3.445635	3.445635
1.961000	3.455795	3.455795
1.962000	3.445635	3.445635
1.963000	3.445635	3.445635
1.964000	3.450715	3.450715
1.965000	3.450715	3.450715
1.966000	3.455795	3.455795
1.967000	3.455795	3.455795
1.968000	3.455795	3.455795
1.969000	3.455795	3.455795
1.970000	3.455795	3.455795
1.971000	3.460876	3.460876
1.972000	3.450715	3.450715
1.973000	3.450715	3.450715
1.974000	3.450715	3.450715
1.975000	3.450715	3.450715
1.976000	3.450715	3.450715
1.977000	3.445635	3.445635
1.978000	3.455795	3.455795
1.979000	3.450715	3.450715
1.980000	3.445635	3.445635
1.981000	3.450715	3.450715
1.982000	3.450715	3.450715
1.983000	3.450715	3.450715
1.984000	3.450715	3.450715
1.985000	3.450715	3.450715
1.986000	3.445635	3.445635
1.987000	3.450715	3.450715
1.988000	3.450715	3.450715
1.989000	3.455795	3.455795
1.990000	3.455795	3.455795
1.991000	3.450715	3.450715
1.992000	3.455795	3.455795
1.993000	3.455795	3.455795
1.994000	3.450715	3.450715
1.995000	3.450715	3.450715
1.996000	3.450715	3.450715
1.997000	3.450715	3.450715
1.998000	3.450715	3.450715
1.999000	3.450715	3.450715
2.000000	3.450715	3.450715
2.001000	3.450715	3.450715
2.002000	3.450715	3.450715
2.003000	3.450715	3.450715
2.004000	3.450715	3.450715
2.005000	3.455795	3.455795
2.006000	3.450715	3.450715
2.007000	3.455795	3.455795
2.008000	3.455795	3.455795
2.009000	3.450715	3.450715
2.010000	3.450715	3.450715
2.011000	3.455795	3.455795
2.012000	3.450715	3.450715
2.013000	3.450715	3.450715
2.014000	3.450715	3.450715
2.015000	3.450715	3.450715
2.016000	3.450715	3.450715
2.017000	3.450715	3.450715
2.018000	3.450715	3.450715
2.019000	3.445635	3.445635
2.020000	3.455795	3.455795
2.021000	3.450715	3.450715
2.022000	3.455795	3.455795
2.023000	3.455795	3.455795
2.024000	3.455795	3.455795
2.025000	3.455795	3.455795
2.026000	3.455795	3.455795
2.027000	3.455795	3.455795
2.028000	3.455795	3.455795
2.029000	3.450715	3.450715
2.030000	3.450715	3.450715
2.031000	3.450715	3.450715
2.032000	3.450715	3.450715
2.033000	3.450715	3.450715
2.034000	3.450715	3.450715
2.035000	3.445635	3.445635
2.036000	3.445635	3.445635
2.037000	3.445635	3.445635
2.038000	3.455795	3.455795
2.039000	3.450715	3.450715
2.040000	3.455795	3.455795
2.041000	3.455795	3.455795
2.042000	3.450715	3.450715
2.043000	3.450715	3.450715
2.044000	3.450715	3.450715
2.045000	3.455795	3.455795
2.046000	3.455795	3.455795
2.047000	3.450715	3.450715
2.048000	3.450715	3.450715
2.049000	3.450715	3.450715
2.050000	3.455795	3.455795
2.051000	3.455795	3.455795
2.052000	3.445635	3.445635
2.053000	3.450715	3.450715
2.054000	3.450715	3.450715
2.055000	3.450715	3.450715
2.056000	3.450715	3.450715
2.057000	3.455795	3.455795
2.058000	3.450715	3.450715
2.059000	3.450715	3.450715
2.060000	3.450715	3.450715
2.061000	3.455795	3.455795
2.062000	3.450715	3.450715
2.063000	3.455795	3.455795
2.064000	3.450715	3.450715
2.065000	3.450715	3.450715
2.066000	3.455795	3.455795
2.067000	3.450715	3.450715
2.068000	3.450715	3.450715
2.069000	3.450715	3.450715
2.070000	3.445635	3.445635
2.071000	3.445635	3.445635
2.072000	3.450715	3.450715
2.073000	3.450715	3.450715
2.074000	3.450715	3.450715
2.075000	3.450715	3.450715
2.076000	3.450715	3.450715
2.077000	3.450715	3.450715
2.078000	3.450715	3.450715
2.079000	3.455795	3.455795
2.080000	3.450715	3.450715
2.081000	3.460876	3.460876
2.082000	3.460876	3.460876
2.083000	3.450715	3.450715
2.084000	3.450715	3.450715
2.085000	3.450715	3.450715
2.086000	3.450715	3.450715
2.087000	3.450715	3.450715
2.088000	3.450715	3.450715
2.089000	3.450715	3.450715
2.090000	3.450715	3.450715
2.091000	3.455795	3.455795
2.092000	3.450715	3.450715
2.093000	3.450715	3.450715
2.094000	3.450715	3.450715
2.095000	3.450715	3.450715
2.096000	3.455795	3.455795
2.097000	3.455795	3.455795
2.098000	3.450715	3.450715
2.099000	3.450715	3.450715
2.100000	3.455795	3.455795
2.101000	3.450715	3.450715
2.102000	3.460876	3.460876
2.103000	3.455795	3.455795
2.104000	3.445635	3.445635
2.105000	3.450715	3.450715
2.106000	3.450715	3.450715
2.107000	3.450715	3.450715
2.108000	3.445635	3.445635
2.109000	3.450715	3.450715
2.110000	3.445635	3.445635
2.111000	3.450715	3.450715
2.112000	3.450715	3.450715
2.113000	3.450715	3.450715
2.114000	3.450715	3.450715
2.115000	3.455795	3.455795
2.116000	3.450715	3.450715
2.117000	3.450715	3.450715
2.118000	3.455795	3.455795
2.119000	3.450715	3.450715
2.120000	3.455795	3.455795
2.121000	3.455795	3.455795
2.122000	3.450715	3.450715
2.123000	3.450715	3.450715
2.124000	3.450715	3.450715
2.125000	3.450715	3.450715
2.126000	3.445635	3.445635
2.127000	3.440555	3.440555
2.128000	3.445635	3.445635
2.129000	3.450715	3.450715
2.130000	3.450715	3.450715
2.131000	3.445635	3.445635
2.132000	3.450715	3.450715
2.133000	3.445635	3.445635
2.134000	3.455795	3.455795
2.135000	3.450715	3.450715
2.136000	3.450715	3.450715
2.137000	3.450715	3.450715
2.138000	3.455795	3.455795
2.139000	3.455795	3.455795
2.140000	3.450715	3.450715
2.141000	3.450715	3.450715
2.142000	3.450715	3.450715
2.143000	3.450715	3.450715
2.144000	3.450715	3.450715
2.145000	3.445635	3.445635
2.146000	3.450715	3.450715
2.147000	3.450715	3.450715
2.148000	3.445635	3.445635
2.149000	3.450715	3.450715
2.150000	3.450715	3.450715
2.151000	3.455795	3.455795
2.152000	3.450715	3.450715
2.153000	3.450715	3.450715
2.154000	3.455795	3.455795
2.155000	3.450715	3.450715
2.156000	3.455795	3.455795
2.157000	3.450715	3.450715
2.158000	3.450715	3.450715
2.159000	3.450715	3.450715
2.160000	3.450715	3.450715
2.161000	3.450715	3.450715
2.162000	3.455795	3.455795
2.163000	3.450715	3.450715
2.164000	3.455795	3.455795
2.165000	3.450715	3.450715
2.166000	3.445635	3.445635
2.167000	3.450715	3.450715
2.168000	3.455795	3.455795
2.169000	3.455795	3.455795
2.170000	3.450715	3.450715
2.171000	3.445635	3.445635
2.172000	3.450715	3.450715
2.173000	3.450715	3.450715
2.174000	3.455795	3.455795
2.175000	3.450715	3.450715
2.176000	3.455795	3.455795
2.177000	3.455795	3.455795
2.178000	3.445635	3.445635
2.179000	3.450715	3.450715
2.180000	3.445635	3.445635
2.181000	3.450715	3.450715
2.182000	3.445635	3.445635
2.183000	3.445635	3.445635
2.184000	3.450715	3.450715
2.185000	3.450715	3.450715
2.186000	3.445635	3.445635
2.187000	3.455795	3.455795
2.188000	3.445635	3.445635
2.189000	3.455795	3.455795
2.190000	3.460876	3.460876
2.191000	3.450715	3.450715
2.192000	3.450715	3.450715
2.193000	3.455795	3.455795
2.194000	3.455795	3.455795
2.195000	3.450715	3.450715
2.196000	3.460876	3.460876
2.197000	3.450715	3.450715
2.198000	3.455795	3.455795
2.199000	3.450715	3.450715
2.200000	3.450715	3.450715
2.201000	3.445635	3.445635
2.202000	3.445635	3.445635
2.203000	3.450715	3.450715
2.204000	3.455795	3.455795
2.205000	3.450715	3.450715
2.206000	3.455795	3.455795
2.207000	3.450715	3.450715
2.208000	3.450715	3.450715
2.209000	3.455795	3.455795
2.210000	3.450715	3.450715
2.211000	3.450715	3.450715
2.212000	3.450715	3.450715
2.213000	3.450715	3.450715
2.214000	3.450715	3.450715
2.215000	3.450715	3.450715
2.216000	3.445635	3.445635
2.217000	3.450715	3.450715
2.218000	3.445635	3.445635
2.219000	3.445635	3.445635
2.220000	3.450715	3.450715
2.221000	3.450715	3.450715
2.222000	3.450715	3.450715
2.223000	3.450715	3.450715
2.224000	3.445635	3.445635
2.225000	3.450715	3.450715
2.226000	3.450715	3.450715
2.227000	3.450715	3.450715
2.228000	3.450715	3.450715
2.229000	3.450715	3.450715
2.230000	3.450715	3.450715
2.231000	3.450715	3.450715
2.232000	3.455795	3.455795
2.233000	3.450715	3.450715
2.234000	3.445635	3.445635
2.235000	3.445635	3.445635
2.236000	3.445635	3.445635
2.237000	3.445635	3.445635
2.238000	3.445635	3.445635
2.239000	3.445635	3.445635
2.240000	3.450715	3.450715
2.241000	3.445635	3.445635
2.242000	3.445635	3.445635
2.243000	3.450715	3.450715
2.244000	3.450715	3.450715
2.245000	3.450715	3.450715
2.246000	3.445635	3.445635
2.247000	3.455795	3.455795
2.248000	3.450715	3.450715
2.249000	3.445635	3.445635
2.250000	3.450715	3.450715
2.251000	3.450715	3.450715
2.252000	3.450715	3.450715
2.253000	3.445635	3.445635
2.254000	3.445635	3.445635
2.255000	3.445635	3.445635
2.256000	3.445635	3.445635
2.257000	3.445635	3.445635
2.258000	3.445635	3.445635
2.259000	3.445635	3.445635
2.260000	3.445635	3.445635
2.261000	3.445635	3.445635
2.262000	3.445635	3.445635
2.263000	3.450715	3.450715
2.264000	3.450715	3.450715
2.265000	3.450715	3.450715
2.266000	3.450715	3.450715
2.267000	3.450715	3.450715
2.268000	3.450715	3.450715
2.269000	3.445635	3.445635
2.270000	3.450715	3.450715
2.271000	3.450715	3.450715
2.272000	3.450715	3.450715
2.273000	3.450715	3.450715
2.274000	3.450715	3.450715
2.275000	3.450715	3.450715
2.276000	3.445635	3.445635
2.277000	3.450715	3.450715
2.278000	3.445635	3.445635
2.279000	3.450715	3.450715
2.280000	3.455795	3.455795
2.281000	3.450715	3.450715
2.282000	3.450715	3.450715
2.283000	3.455795	3.455795
2.284000	3.450715	3.450715
2.285000	3.455795	3.455795
2.286000	3.450715	3.450715
2.287000	3.445635	3.445635
2.288000	3.450715	3.450715
2.289000	3.450715	3.450715
2.290000	3.450715	3.450715
2.291000	3.450715	3.450715
2.292000	3.450715	3.450715
2.293000	3.445635	3.445635
2.294000	3.445635	3.445635
2.295000	3.450715	3.450715
2.296000	3.450715	3.450715
2.297000	3.455795	3.455795
2.298000	3.455795	3.455795
2.299000	3.450715	3.450715
2.300000	3.450715	3.450715
2.301000	3.450715	3.450715
2.302000	3.450715	3.450715
2.303000	3.455795	3.455795
2.304000	3.455795	3.455795
2.305000	3.450715	3.450715
2.306000	3.455795	3.455795
2.307000	3.455795	3.455795
2.308000	3.450715	3.450715
2.309000	3.450715	3.450715
2.310000	3.445635	3.445635
2.311000	3.450715	3.450715
2.312000	3.450715	3.450715
2.313000	3.450715	3.450715
2.314000	3.445635	3.445635
2.315000	3.445635	3.445635
2.316000	3.450715	3.450715
2.317000	3.455795	3.455795
2.318000	3.450715	3.450715
2.319000	3.450715	3.450715
2.320000	3.445635	3.445635
2.321000	3.455795	3.455795
2.322000	3.450715	3.450715
2.323000	3.450715	3.450715
2.324000	3.450715	3.450715
2.325000	3.450715	3.450715
2.326000	3.455795	3.455795
2.327000	3.450715	3.450715
2.328000	3.445635	3.445635
2.329000	3.450715	3.450715
2.330000	3.450715	3.450715
2.331000	3.450715	3.450715
2.332000	3.445635	3.445635
2.333000	3.450715	3.450715
2.334000	3.450715	3.450715
2.335000	3.445635	3.445635
2.336000	3.445635	3.445635
2.337000	3.450715	3.450715
2.338000	3.450715	3.450715
2.339000	3.445635	3.445635
2.340000	3.455795	3.455795
2.341000	3.450715	3.450715
2.342000	3.450715	3.450715
2.343000	3.450715	3.450715
2.344000	3.450715	3.450715
2.345000	3.450715	3.450715
2.346000	3.445635	3.445635
2.347000	3.450715	3.450715
2.348000	3.450715	3.450715
2.349000	3.450715	3.450715
2.350000	3.450715	3.450715
2.351000	3.450715	3.450715
2.352000	3.445635	3.445635
2.353000	3.450715	3.450715
2.354000	3.450715	3.450715
2.355000	3.450715	3.450715
2.356000	3.450715	3.450715
2.357000	3.455795	3.455795
2.358000	3.445635	3.445635
2.359000	3.455795	3.455795
2.360000	3.450715	3.450715
2.361000	3.450715	3.450715
2.362000	3.450715	3.450715
2.363000	3.450715	3.450715
2.364000	3.450715	3.450715
2.365000	3.445635	3.445635
2.366000	3.450715	3.450715
2.367000	3.450715	3.450715
2.368000	3.445635	3.445635
2.369000	3.445635	3.445635
2.370000	3.450715	3.450715
2.371000	3.445635	3.445635
2.372000	3.450715	3.450715
2.373000	3.450715	3.450715
2.374000	3.455795	3.455795
2.375000	3.450715	3.450715
2.376000	3.445635	3.445635
2.377000	3.455795	3.455795
2.378000	3.450715	3.450715
2.379000	3.455795	3.455795
2.380000	3.450715	3.450715
2.381000	3.450715	3.450715
2.382000	3.450715	3.450715
2.383000	3.450715	3.450715
2.384000	3.445635	3.445635
2.385000	3.450715	3.450715
2.386000	3.445635	3.445635
2.387000	3.445635	3.445635
2.388000	3.445635	3.445635
2.389000	3.450715	3.450715
2.390000	3.450715	3.450715
2.391000	3.455795	3.455795
2.392000	3.455795	3.455795
2.393000	3.455795	3.455795
2.394000	3.450715	3.450715
2.395000	3.450715	3.450715
2.396000	3.450715	3.450715
2.397000	3.450715	3.450715
2.398000	3.450715	3.450715
2.399000	3.455795	3.455795
2.400000	3.450715	3.450715
2.401000	3.445635	3.445635
2.402000	3.445635	3.445635
2.403000	3.445635	3.445635
2.404000	3.450715	3.450715
2.405000	3.445635	3.445635
2.406000	3.450715	3.450715
2.407000	3.450715	3.450715
2.408000	3.450715	3.450715
2.409000	3.445635	3.445635
2.410000	3.450715	3.450715
2.411000	3.450715	3.450715
2.412000	3.455795	3.455795
2.413000	3.450715	3.450715
2.414000	3.450715	3.450715
2.415000	3.455795	3.455795
2.416000	3.445635	3.445635
2.417000	3.450715	3.450715
2.418000	3.450715	3.450715
2.419000	3.445635	3.445635
2.420000	3.445635	3.445635
2.421000	3.445635	3.445635
2.422000	3.445635	3.445635
2.423000	3.445635	3.445635
2.424000	3.450715	3.450715
2.425000	3.445635	3.445635
2.426000	3.450715	3.450715
2.427000	3.450715	3.450715
2.428000	3.450715	3.450715
2.429000	3.450715	3.450715
2.430000	3.450715	3.450715
2.431000	3.455795	3.455795
2.432000	3.450715	3.450715
2.433000	3.450715	3.450715
2.434000	3.455795	3.455795
2.435000	3.450715	3.450715
2.436000	3.450715	3.450715
2.437000	3.450715	3.450715
2.438000	3.445635	3.445635
2.439000	3.450715	3.450715
2.440000	3.450715	3.450715
2.441000	3.445635	3.445635
2.442000	3.450715	3.450715
2.443000	3.450715	3.450715
2.444000	3.450715	3.450715
2.445000	3.450715	3.450715
2.446000	3.445635	3.445635
2.447000	3.450715	3.450715
2.448000	3.450715	3.450715
2.449000	3.450715	3.450715
2.450000	3.450715	3.450715
2.451000	3.455795	3.455795
2.452000	3.450715	3.450715
2.453000	3.450715	3.450715
2.454000	3.450715	3.450715
2.455000	3.450715	3.450715
2.456000	3.450715	3.450715
2.457000	3.450715	3.450715
2.458000	3.450715	3.450715
2.459000	3.445635	3.445635
2.460000	3.445635	3.445635
2.461000	3.450715	3.450715
2.462000	3.445635	3.445635
2.463000	3.445635	3.445635
2.464000	3.445635	3.445635
2.465000	3.450715	3.450715
2.466000	3.450715	3.450715
2.467000	3.450715	3.450715
2.468000	3.450715	3.450715
2.469000	3.450715	3.450715
2.470000	3.450715	3.450715
2.471000	3.455795	3.455795
2.472000	3.455795	3.455795
2.473000	3.450715	3.450715
2.474000	3.450715	3.450715
2.475000	3.445635	3.445635
2.476000	3.450715	3.450715
2.477000	3.450715	3.450715
2.478000	3.445635	3.445635
2.479000	3.450715	3.450715
2.480000	3.450715	3.450715
2.481000	3.450715	3.450715
2.482000	3.445635	3.445635
2.483000	3.445635	3.445635
2.484000	3.445635	3.445635
2.485000	3.450715	3.450715
2.486000	3.450715	3.450715
2.487000	3.450715	3.450715
2.488000	3.455795	3.455795
2.489000	3.455795	3.455795
2.490000	3.450715	3.450715
2.491000	3.450715	3.450715
2.492000	3.445635	3.445635
2.493000	3.455795	3.455795
2.494000	3.450715	3.450715
2.495000	3.445635	3.445635
2.496000	3.445635	3.445635
2.497000	3.450715	3.450715
2.498000	3.450715	3.450715
2.499000	3.445635	3.445635
2.500000	3.450715	3.450715
2.501000	3.450715	3.450715
2.502000	3.450715	3.450715
2.503000	3.450715	3.450715
2.504000	3.450715	3.450715
2.505000	3.450715	3.450715
2.506000	3.450715	3.450715
2.507000	3.450715	3.450715
2.508000	3.450715	3.450715
2.509000	3.450715	3.450715
2.510000	3.450715	3.450715
2.511000	3.450715	3.450715
2.512000	3.450715	3.450715
2.513000	3.445635	3.445635
2.514000	3.450715	3.450715
2.515000	3.445635	3.445635
2.516000	3.450715	3.450715
2.517000	3.450715	3.450715
2.518000	3.450715	3.450715
2.519000	3.450715	3.450715
2.520000	3.455795	3.455795
2.521000	3.445635	3.445635
2.522000	3.450715	3.450715
2.523000	3.450715	3.450715
2.524000	3.450715	3.450715
2.525000	3.455795	3.455795
2.526000	3.455795	3.455795
2.527000	3.455795	3.455795
2.528000	3.450715	3.450715
2.529000	3.450715	3.450715
2.530000	3.450715	3.450715
2.531000	3.455795	3.455795
2.532000	3.450715	3.450715
2.533000	3.445635	3.445635
2.534000	3.445635	3.445635
2.535000	3.445635	3.445635
2.536000	3.445635	3.445635
2.537000	3.445635	3.445635
2.538000	3.450715	3.450715
2.539000	3.450715	3.450715
2.540000	3.455795	3.455795
2.541000	3.450715	3.450715
2.542000	3.455795	3.455795
2.543000	3.455795	3.455795
2.544000	3.455795	3.455795
2.545000	3.450715	3.450715
2.546000	3.445635	3.445635
2.547000	3.450715	3.450715
2.548000	3.450715	3.450715
2.549000	3.450715	3.450715
2.550000	3.445635	3.445635
2.551000	3.445635	3.445635
2.552000	3.455795	3.455795
2.553000	3.450715	3.450715
2.554000	3.445635	3.445635
2.555000	3.450715	3.450715
2.556000	3.450715	3.450715
2.557000	3.445635	3.445635
2.558000	3.445635	3.445635
2.559000	3.455795	3.455795
2.560000	3.450715	3.450715
2.561000	3.450715	3.450715
2.562000	3.455795	3.455795
2.563000	3.455795	3.455795
2.564000	3.450715	3.450715
2.565000	3.445635	3.445635
2.566000	3.450715	3.450715
2.567000	3.450715	3.450715
2.568000	3.445635	3.445635
2.569000	3.450715	3.450715
2.570000	3.445635	3.445635
2.571000	3.445635	3.445635
2.572000	3.450715	3.450715
2.573000	3.450715	3.450715
2.574000	3.450715	3.450715
2.575000	3.450715	3.450715
2.576000	3.450715	3.450715
2.577000	3.450715	3.450715
2.578000	3.445635	3.445635
2.579000	3.450715	3.450715
2.580000	3.450715	3.450715
2.581000	3.450715	3.450715
2.582000	3.455795	3.455795
2.583000	3.450715	3.450715
2.584000	3.450715	3.450715
2.585000	3.445635	3.445635
2.586000	3.445635	3.445635
2.587000	3.445635	3.445635
2.588000	3.450715	3.450715
2.589000	3.450715	3.450715
2.590000	3.450715	3.450715
2.591000	3.450715	3.450715
2.592000	3.445635	3.445635
2.593000	3.455795	3.455795
2.594000	3.450715	3.450715
2.595000	3.450715	3.450715
2.596000	3.455795	3.455795
2.597000	3.450715	3.450715
2.598000	3.450715	3.450715
2.599000	3.455795	3.455795
2.600000	3.450715	3.450715
2.601000	3.450715	3.450715
2.602000	3.450715	3.450715
2.603000	3.450715	3.450715
2.604000	3.450715	3.450715
2.605000	3.450715	3.450715
2.606000	3.450715	3.450715
2.607000	3.450715	3.450715
2.608000	3.445635	3.445635
2.609000	3.445635	3.445635
2.610000	3.450715	3.450715
2.611000	3.440555	3.440555
2.612000	3.445635	3.445635
2.613000	3.455795	3.455795
2.614000	3.450715	3.450715
2.615000	3.455795	3.455795
2.616000	3.455795	3.455795
2.617000	3.450715	3.450715
2.618000	3.455795	3.455795
2.619000	3.450715	3.450715
2.620000	3.450715	3.450715
2.621000	3.450715	3.450715
2.622000	3.450715	3.450715
2.623000	3.455795	3.455795
2.624000	3.450715	3.450715
2.625000	3.445635	3.445635
2.626000	3.450715	3.450715
2.627000	3.450715	3.450715
2.628000	3.445635	3.445635
2.629000	3.450715	3.450715
2.630000	3.450715	3.450715
2.631000	3.455795	3.455795
2.632000	3.450715	3.450715
2.633000	3.455795	3.455795
2.634000	3.455795	3.455795
2.635000	3.455795	3.455795
2.636000	3.455795	3.455795
2.637000	3.455795	3.455795
2.638000	3.455795	3.455795
2.639000	3.455795	3.455795
2.640000	3.455795	3.455795
2.641000	3.450715	3.450715
2.642000	3.450715	3.450715
2.643000	3.450715	3.450715
2.644000	3.450715	3.450715
2.645000	3.450715	3.450715
2.646000	3.455795	3.455795
2.647000	3.450715	3.450715
2.648000	3.455795	3.455795
2.649000	3.455795	3.455795
2.650000	3.455795	3.455795
2.651000	3.450715	3.450715
2.652000	3.450715	3.450715
2.653000	3.450715	3.450715
2.654000	3.455795	3.455795
2.655000	3.450715	3.450715
2.656000	3.455795	3.455795
2.657000	3.455795	3.455795
2.658000	3.455795	3.455795
2.659000	3.450715	3.450715
2.660000	3.450715	3.450715
2.661000	3.445635	3.445635
2.662000	3.445635	3.445635
2.663000	3.450715	3.450715
2.664000	3.450715	3.450715
2.665000	3.450715	3.450715
2.666000	3.450715	3.450715
2.667000	3.455795	3.455795
2.668000	3.455795	3.455795
2.669000	3.450715	3.450715
2.670000	3.455795	3.455795
2.671000	3.455795	3.455795
2.672000	3.450715	3.450715
2.673000	3.455795	3.455795
2.674000	3.455795	3.455795
2.675000	3.450715	3.450715
2.676000	3.450715	3.450715
2.677000	3.450715	3.450715
2.678000	3.450715	3.450715
2.679000	3.450715	3.450715
2.680000	3.455795	3.455795
2.681000	3.450715	3.450715
2.682000	3.450715	3.450715
2.683000	3.445635	3.445635
2.684000	3.445635	3.445635
2.685000	3.450715	3.450715
2.686000	3.450715	3.450715
2.687000	3.450715	3.450715
2.688000	3.450715	3.450715
2.689000	3.460876	3.460876
2.690000	3.455795	3.455795
2.691000	3.455795	3.455795
2.692000	3.450715	3.450715
2.693000	3.455795	3.455795
2.694000	3.450715	3.450715
2.695000	3.450715	3.450715
2.696000	3.450715	3.450715
2.697000	3.450715	3.450715
2.698000	3.450715	3.450715
2.699000	3.450715	3.450715
2.700000	3.455795	3.455795
2.701000	3.455795	3.455795
2.702000	3.450715	3.450715
2.703000	3.450715	3.450715
2.704000	3.455795	3.455795
2.705000	3.450715	3.450715
2.706000	3.450715	3.450715
2.707000	3.455795	3.455795
2.708000	3.450715	3.450715
2.709000	3.455795	3.455795
2.710000	3.455795	3.455795
2.711000	3.455795	3.455795
2.712000	3.455795	3.455795
2.713000	3.455795	3.455795
2.714000	3.450715	3.450715
2.715000	3.450715	3.450715
2.716000	3.450715	3.450715
2.717000	3.450715	3.450715
2.718000	3.450715	3.450715
2.719000	3.455795	3.455795
2.720000	3.450715	3.450715
2.721000	3.455795	3.455795
2.722000	3.450715	3.450715
2.723000	3.450715	3.450715
2.724000	3.455795	3.455795
2.725000	3.450715	3.450715
2.726000	3.455795	3.455795
2.727000	3.455795	3.455795
2.728000	3.455795	3.455795
2.729000	3.455795	3.455795
2.730000	3.450715	3.450715
2.731000	3.455795	3.455795
2.732000	3.450715	3.450715
2.733000	3.450715	3.450715
2.734000	3.450715	3.450715
2.735000	3.450715	3.450715
2.736000	3.450715	3.450715
2.737000	3.450715	3.450715
2.738000	3.450715	3.450715
2.739000	3.450715	3.450715
2.740000	3.450715	3.450715
2.741000	3.450715	3.450715
2.742000	3.450715	3.450715
2.743000	3.450715	3.450715
2.744000	3.460876	3.460876
2.745000	3.455795	3.455795
2.746000	3.450715	3.450715
2.747000	3.460876	3.460876
2.748000	3.455795	3.455795
2.749000	3.455795	3.455795
2.750000	3.455795	3.455795
2.751000	3.450715	3.450715
2.752000	3.450715	3.450715
2.753000	3.450715	3.450715
2.754000	3.450715	3.450715
2.755000	3.450715	3.450715
2.756000	3.445635	3.445635
2.757000	3.450715	3.450715
2.758000	3.455795	3.455795
2.759000	3.450715	3.450715
2.760000	3.455795	3.455795
2.761000	3.455795	3.455795
2.762000	3.450715	3.450715
2.763000	3.455795	3.455795
2.764000	3.455795	3.455795
2.765000	3.455795	3.455795
2.766000	3.455795	3.455795
2.767000	3.455795	3.455795
2.768000	3.450715	3.450715
2.769000	3.455795	3.455795
2.770000	3.455795	3.455795
2.771000	3.455795	3.455795
2.772000	3.450715	3.450715
2.773000	3.455795	3.455795
2.774000	3.450715	3.450715
2.775000	3.450715	3.450715
2.776000	3.450715	3.450715
2.777000	3.450715	3.450715
2.778000	3.450715	3.450715
2.779000	3.455795	3.455795
2.780000	3.455795	3.455795
2.781000	3.450715	3.450715
2.782000	3.455795	3.455795
2.783000	3.455795	3.455795
2.784000	3.455795	3.455795
2.785000	3.455795	3.455795
2.786000	3.450715	3.450715
2.787000	3.455795	3.455795
2.788000	3.455795	3.455795
2.789000	3.455795	3.455795
2.790000	3.450715	3.450715
2.791000	3.450715	3.450715
2.792000	3.455795	3.455795
2.793000	3.450715	3.450715
2.794000	3.450715	3.450715
2.795000	3.450715	3.450715
2.796000	3.455795	3.455795
2.797000	3.455795	3.455795
2.798000	3.455795	3.455795
2.799000	3.450715	3.450715
2.800000	3.455795	3.455795
2.801000	3.450715	3.450715
2.802000	3.455795	3.455795
2.803000	3.455795	3.455795
2.804000	3.455795	3.455795
2.805000	3.455795	3.455795
2.806000	3.450715	3.450715
2.807000	3.450715	3.450715
2.808000	3.450715	3.450715
2.809000	3.450715	3.450715
2.810000	3.450715	3.450715
2.811000	3.450715	3.450715
2.812000	3.450715	3.450715
2.813000	3.450715	3.450715
2.814000	3.450715	3.450715
2.815000	3.450715	3.450715
2.816000	3.450715	3.450715
2.817000	3.455795	3.455795
2.818000	3.455795	3.455795
2.819000	3.455795	3.455795
2.820000	3.450715	3.450715
2.821000	3.450715	3.450715
2.822000	3.455795	3.455795
2.823000	3.455795	3.455795
2.824000	3.450715	3.450715
2.825000	3.455795	3.455795
2.826000	3.450715	3.450715
2.827000	3.455795	3.455795
2.828000	3.455795	3.455795
2.829000	3.450715	3.450715
2.830000	3.450715	3.450715
2.831000	3.450715	3.450715
2.832000	3.450715	3.450715
2.833000	3.450715	3.450715
2.834000	3.455795	3.455795
2.835000	3.455795	3.455795
2.836000	3.455795	3.455795
2.837000	3.450715	3.450715
2.838000	3.455795	3.455795
2.839000	3.455795	3.455795
2.840000	3.455795	3.455795
2.841000	3.450715	3.450715
2.842000	3.455795	3.455795
2.843000	3.455795	3.455795
2.844000	3.450715	3.450715
2.845000	3.450715	3.450715
2.846000	3.455795	3.455795
2.847000	3.455795	3.455795
2.848000	3.455795	3.455795
2.849000	3.445635	3.445635
2.850000	3.450715	3.450715
2.851000	3.455795	3.455795
2.852000	3.450715	3.450715
2.853000	3.450715	3.450715
2.854000	3.455795	3.455795
2.855000	3.450715	3.450715
2.856000	3.455795	3.455795
2.857000	3.455795	3.455795
2.858000	3.455795	3.455795
2.859000	3.455795	3.455795
2.860000	3.460876	3.460876
2.861000	3.455795	3.455795
2.862000	3.450715	3.450715
2.863000	3.455795	3.455795
2.864000	3.450715	3.450715
2.865000	3.455795	3.455795
2.866000	3.450715	3.450715
2.867000	3.450715	3.450715
2.868000	3.450715	3.450715
2.869000	3.450715	3.450715
2.870000	3.455795	3.455795
2.871000	3.445635	3.445635
2.872000	3.455795	3.455795
2.873000	3.450715	3.450715
2.874000	3.455795	3.455795
2.875000	3.455795	3.455795
2.876000	3.450715	3.450715
2.877000	3.455795	3.455795
2.878000	3.455795	3.455795
2.879000	3.455795	3.455795
2.880000	3.455795	3.455795
2.881000	3.450715	3.450715
2.882000	3.450715	3.450715
2.883000	3.450715	3.450715
2.884000	3.450715	3.450715
2.885000	3.450715	3.450715
2.886000	3.450715	3.450715
2.887000	3.445635	3.445635
2.888000	3.450715	3.450715
2.889000	3.455795	3.455795
2.890000	3.455795	3.455795
2.891000	3.450715	3.450715
2.892000	3.450715	3.450715
2.893000	3.455795	3.455795
2.894000	3.455795	3.455795
2.895000	3.450715	3.450715
2.896000	3.455795	3.455795
2.897000	3.455795	3.455795
2.898000	3.450715	3.450715
2.899000	3.450715	3.450715
2.900000	3.455795	3.455795
2.901000	3.450715	3.450715
2.902000	3.450715	3.450715
2.903000	3.450715	3.450715
2.904000	3.445635	3.445635
2.905000	3.450715	3.450715
2.906000	3.450715	3.450715
2.907000	3.450715	3.450715
2.908000	3.450715	3.450715
2.909000	3.445635	3.445635
2.910000	3.450715	3.450715
2.911000	3.450715	3.450715
2.912000	3.450715	3.450715
2.913000	3.450715	3.450715
2.914000	3.450715	3.450715
2.915000	3.450715	3.450715
2.916000	3.450715	3.450715
2.917000	3.455795	3.455795
2.918000	3.445635	3.445635
2.919000	3.450715	3.450715
2.920000	3.450715	3.450715
2.921000	3.450715	3.450715
2.922000	3.445635	3.445635
2.923000	3.445635	3.445635
2.924000	3.450715	3.450715
2.925000	3.445635	3.445635
2.926000	3.450715	3.450715
2.927000	3.450715	3.450715
2.928000	3.450715	3.450715
2.929000	3.455795	3.455795
2.930000	3.455795	3.455795
2.931000	3.450715	3.450715
2.932000	3.455795	3.455795
2.933000	3.455795	3.455795
2.934000	3.450715	3.450715
2.935000	3.450715	3.450715
2.936000	3.455795	3.455795
2.937000	3.455795	3.455795
2.938000	3.445635	3.445635
2.939000	3.450715	3.450715
2.940000	3.450715	3.450715
2.941000	3.455795	3.455795
2.942000	3.450715	3.450715
2.943000	3.450715	3.450715
2.944000	3.450715	3.450715
2.945000	3.455795	3.455795
2.946000	3.455795	3.455795
2.947000	3.450715	3.450715
2.948000	3.455795	3.455795
2.949000	3.455795	3.455795
2.950000	3.455795	3.455795
2.951000	3.450715	3.450715
2.952000	3.450715	3.450715
2.953000	3.455795	3.455795
2.954000	3.455795	3.455795
2.955000	3.450715	3.450715
2.956000	3.450715	3.450715
2.957000	3.445635	3.445635
2.958000	3.450715	3.450715
2.959000	3.445635	3.445635
2.960000	3.450715	3.450715
2.961000	3.450715	3.450715
2.962000	3.450715	3.450715
2.963000	3.450715	3.450715
2.964000	3.455795	3.455795
2.965000	3.455795	3.455795
2.966000	3.455795	3.455795
2.967000	3.455795	3.455795
2.968000	3.450715	3.450715
2.969000	3.455795	3.455795
2.970000	3.455795	3.455795
2.971000	3.450715	3.450715
2.972000	3.450715	3.450715
2.973000	3.450715	3.450715
2.974000	3.455795	3.455795
2.975000	3.450715	3.450715
2.976000	3.455795	3.455795
2.977000	3.450715	3.450715
2.978000	3.445635	3.445635
2.979000	3.450715	3.450715
2.980000	3.450715	3.450715
2.981000	3.450715	3.450715
2.982000	3.455795	3.455795
2.983000	3.450715	3.450715
2.984000	3.455795	3.455795
2.985000	3.455795	3.455795
2.986000	3.455795	3.455795
2.987000	3.455795	3.455795
2.988000	3.455795	3.455795
2.989000	3.455795	3.455795
2.990000	3.450715	3.450715
2.991000	3.455795	3.455795
2.992000	3.450715	3.450715
2.993000	3.450715	3.450715
2.994000	3.450715	3.450715
2.995000	3.445635	3.445635
2.996000	3.450715	3.450715
2.997000	3.445635	3.445635
2.998000	3.450715	3.450715
2.999000	3.450715	3.450715
